"id","first_name","last_name","sex","bdate"
66403,"Ася","Сергеева",1,"11.8"
126312,"Лилия","Земнухова",1,NA
1328253,"Oleg","Khoroshilov",2,"30.4"
1993236,"Филипп","Шер",2,"7.10"
2031644,"Сергей","Белов",2,"25.6.1995"
2162199,"Александр","Соколов",2,"8.12.1990"
2475524,"Александр","Денисов",2,"15.6.1995"
3693711,"Миша","Козлов",2,NA
3991024,"Никита","Кацман",2,NA
4133723,"Anton","Gorbunov",2,"3.3.1989"
4432310,"Анатолий","Кац",2,"14.3.1982"
4473958,"Любовь","Посохина",1,"3.3.1994"
4599376,"Иван","Осипов",2,"9.11.1994"
4730954,"Шамиль","Трояновский",2,"31.10.1993"
4757821,"Марк","Вайсман",2,"11.6"
5092746,"Владимир","Виес",2,"9.11.1993"
6026527,"Пётр","Грачёв",2,"10.2"
6223730,"Саша","Николаевская",1,"4.5"
6556423,"Артём","Ерошенко",2,NA
7151356,"Юлия","Цыганова",1,"26.10.1996"
7918037,"Аня","Квон",1,"27.6"
11958987,"Елизавета","Богомолова",1,"24.6"
12931176,"Анастасия","Макаренко",1,"17.7"
13800571,"Лена","Слизень",1,"6.12.1996"
14937072,"Даня","Брежестовский",2,"12.3"
14944652,"Тарас","Макар",2,"19.10.1992"
16961305,"Егор","Невежин",2,"14.8.1996"
17653631,"Анастасия","Завилейская",1,"14.9"
17885170,"Никита","Груздков",2,"5.9"
17939410,"Вениамин","Мигай",2,"13.4"
17948837,"Кирилл","Чернаков",2,"10.7.1996"
18434088,"Роман","Малюшкин",2,"23.6.1994"
18740433,"Юра","Сорокин",2,NA
19548389,"Ксюша","Саешникова",1,"15.9"
21651801,"Серёга","Ершов",2,"3.9.1996"
22053146,"Maria","Ozirna",1,"21.8"
23341310,"Шамиль","Трояновский",2,"31.10.1993"
23870856,"Prosto","Metya",2,"11.7.1996"
24387896,"Диана","Новикова",1,"27.9"
26299260,"Александр","Нарыжный",2,"28.11.1996"
29135759,"Elena","Pchelka",1,"10.7"
31980339,"Алексей","Шутенко",2,"15.6"
32851244,"Андрей","Малюков",2,"9.7"
36901690,"Олеся","Бигун",1,"17.3.1996"
38818464,"Илья","Кузнецов",2,"10.4.1994"
39545504,"Анна","Водвуд",1,"24.11"
42161251,"Кирилл","Барабанов",2,"22.4.1996"
43616734,"Анна","Судакова",1,"19.10.1996"
49911442,"Владислав","Яковлев",2,"23.3.1996"
51342682,"Лена","Камзолова",1,"14.3.1995"
52030030,"Ксения","Каковка",1,NA
53318278,"Мария","Гарец",1,"27.7.1996"
54403561,"Анна","Комарова",1,"15.3"
56085746,"Игорь","Каня",2,"10.6.1996"
63277053,"Серёга","Медведев",2,"25.11.1993"
71848149,"Иван","Пармёнов",2,"6.2.1997"
72409965,"Анна","Пармёнова",1,"7.11.1998"
85585109,"Ju","Kostinikova",1,"18.2.1994"
89175628,"Павел","Шибанов",2,"1.8"
89352727,"Ислам","Бжихатлов",2,"9.1"
90943783,"Дмитрий","Кравченко",2,"26.11"
91134659,"Мария","Родинова",1,"23.3"
106148014,"Мария","Озолиньш",1,"7.6.1993"
112498659,"Алёна","Степанищева",1,"14.11.1993"
122690798,"Юлия","Лигай",1,NA
125331263,"Сандро","Дягилев",2,"29.10"
134347125,"Маша","Вашурина",1,"9.1"
134767550,"Giorgi","Popandopulo",2,"5.5"
136845522,"Катя","Кудрявцева",1,"27.5"
140139072,"Полина","Морозова",1,"10.8.1997"
150472292,"Антон","Немцев",2,NA
154744390,"Альбина","Демкова",1,"12.8.1997"
155074212,"Рома","Бордунов",2,"18.12.1993"
159972049,"Александра","Осипова",1,"13.8.1996"
175652672,"Minimalistic","Cube",1,"2.12.1989"
177588411,"Marina","Momsen",1,"7.4"
179409196,"Марина","Юрьева",1,"15.6.1910"
207972205,"Наталья","Рыбакова",1,"9.7"
208869524,"Макс","Павлюк",2,NA
220876557,"Лия","Эл",1,"7.8"
224101786,"Astoria","Moondance",1,NA
228136608,"Владимир","Чудесный",2,"23.6.1992"
228536207,"Юлия","Воронова",1,"26.7"
232800868,"Антонина","Шаповалова",1,"13.1.1996"
244248693,"Катя","Холодная",1,NA
248920335,"Николай","Чехов",2,"6.2.1907"
258016766,"Polina","Yapparova",1,"18.11"
262347573,"Амелия","Шарман",1,NA
262363406,"Никита","Павлов",2,NA
262648764,"Мария","Аверина",1,"20.10.1998"
275113520,"Максим","Шведов",2,NA
288137000,"Евгений","Покровский",2,"7.4"
292456708,"Давид","Сирха",2,"1.6.1993"
294525941,"Владислав","Брусенцов",2,"15.11"
296887056,"Elena","Yumagulova",1,NA
306759869,"Анастасия","Светлая",1,NA
"V1" "V2"
"66403" "126312"
"66403" "2031644"
"66403" "4473958"
"66403" "38818464"
"126312" "66403"
"126312" "2031644"
"126312" "18434088"
"126312" "207972205"
"1328253" "177588411"
"1993236" "4757821"
"1993236" "7151356"
"1993236" "7918037"
"1993236" "13800571"
"1993236" "16961305"
"1993236" "17653631"
"1993236" "17885170"
"1993236" "17948837"
"1993236" "18434088"
"1993236" "18740433"
"1993236" "24387896"
"1993236" "31980339"
"1993236" "32851244"
"1993236" "36901690"
"1993236" "43616734"
"1993236" "53318278"
"1993236" "56085746"
"1993236" "85585109"
"1993236" "91134659"
"1993236" "112498659"
"1993236" "122690798"
"1993236" "140139072"
"1993236" "150472292"
"1993236" "155074212"
"1993236" "220876557"
"1993236" "288137000"
"2031644" "66403"
"2031644" "126312"
"2031644" "4599376"
"2031644" "4730954"
"2031644" "16961305"
"2031644" "18434088"
"2031644" "85585109"
"2031644" "207972205"
"2162199" "3991024"
"2162199" "90943783"
"2475524" "17885170"
"2475524" "36901690"
"2475524" "43616734"
"2475524" "106148014"
"3991024" "2162199"
"3991024" "90943783"
"4432310" "4473958"
"4432310" "4730954"
"4432310" "63277053"
"4473958" "66403"
"4473958" "4432310"
"4473958" "4599376"
"4473958" "13800571"
"4473958" "24387896"
"4473958" "85585109"
"4473958" "134347125"
"4473958" "232800868"
"4599376" "2031644"
"4599376" "4473958"
"4599376" "4730954"
"4599376" "4757821"
"4599376" "16961305"
"4599376" "17885170"
"4599376" "18434088"
"4599376" "23341310"
"4599376" "24387896"
"4599376" "63277053"
"4599376" "85585109"
"4599376" "106148014"
"4599376" "112498659"
"4599376" "122690798"
"4599376" "134347125"
"4599376" "220876557"
"4599376" "232800868"
"4730954" "2031644"
"4730954" "4432310"
"4730954" "4599376"
"4730954" "4757821"
"4730954" "12931176"
"4730954" "13800571"
"4730954" "16961305"
"4730954" "17885170"
"4730954" "17948837"
"4730954" "18434088"
"4730954" "23870856"
"4730954" "24387896"
"4730954" "36901690"
"4730954" "43616734"
"4730954" "53318278"
"4730954" "63277053"
"4730954" "85585109"
"4730954" "89352727"
"4730954" "106148014"
"4730954" "112498659"
"4730954" "122690798"
"4730954" "134347125"
"4730954" "207972205"
"4730954" "220876557"
"4730954" "232800868"
"4757821" "1993236"
"4757821" "4599376"
"4757821" "4730954"
"4757821" "23341310"
"4757821" "36901690"
"4757821" "85585109"
"4757821" "106148014"
"4757821" "134347125"
"4757821" "288137000"
"5092746" "14944652"
"6026527" "42161251"
"6026527" "155074212"
"6223730" "49911442"
"6223730" "258016766"
"7151356" "1993236"
"7151356" "7918037"
"7151356" "13800571"
"7151356" "16961305"
"7151356" "17653631"
"7151356" "17885170"
"7151356" "18740433"
"7151356" "36901690"
"7151356" "43616734"
"7151356" "53318278"
"7151356" "85585109"
"7151356" "122690798"
"7151356" "150472292"
"7151356" "220876557"
"7918037" "1993236"
"7918037" "7151356"
"7918037" "12931176"
"7918037" "13800571"
"7918037" "16961305"
"7918037" "17885170"
"7918037" "17948837"
"7918037" "18434088"
"7918037" "18740433"
"7918037" "32851244"
"7918037" "36901690"
"7918037" "43616734"
"7918037" "53318278"
"7918037" "85585109"
"7918037" "122690798"
"7918037" "150472292"
"7918037" "220876557"
"12931176" "4730954"
"12931176" "7918037"
"12931176" "85585109"
"12931176" "112498659"
"12931176" "134347125"
"12931176" "220876557"
"13800571" "1993236"
"13800571" "4473958"
"13800571" "4730954"
"13800571" "7151356"
"13800571" "7918037"
"13800571" "16961305"
"13800571" "17885170"
"13800571" "17948837"
"13800571" "18434088"
"13800571" "18740433"
"13800571" "23870856"
"13800571" "24387896"
"13800571" "32851244"
"13800571" "36901690"
"13800571" "43616734"
"13800571" "53318278"
"13800571" "85585109"
"13800571" "122690798"
"13800571" "134347125"
"13800571" "150472292"
"13800571" "220876557"
"13800571" "232800868"
"14944652" "5092746"
"14944652" "208869524"
"16961305" "1993236"
"16961305" "2031644"
"16961305" "4599376"
"16961305" "4730954"
"16961305" "7151356"
"16961305" "7918037"
"16961305" "13800571"
"16961305" "17653631"
"16961305" "17885170"
"16961305" "17948837"
"16961305" "18434088"
"16961305" "18740433"
"16961305" "32851244"
"16961305" "36901690"
"16961305" "43616734"
"16961305" "53318278"
"16961305" "85585109"
"16961305" "106148014"
"16961305" "112498659"
"16961305" "122690798"
"16961305" "150472292"
"16961305" "220876557"
"17653631" "1993236"
"17653631" "7151356"
"17653631" "16961305"
"17653631" "17885170"
"17653631" "36901690"
"17653631" "43616734"
"17653631" "53318278"
"17885170" "1993236"
"17885170" "2475524"
"17885170" "4599376"
"17885170" "4730954"
"17885170" "7151356"
"17885170" "7918037"
"17885170" "13800571"
"17885170" "16961305"
"17885170" "17653631"
"17885170" "17948837"
"17885170" "18434088"
"17885170" "18740433"
"17885170" "32851244"
"17885170" "36901690"
"17885170" "43616734"
"17885170" "53318278"
"17885170" "85585109"
"17885170" "106148014"
"17885170" "112498659"
"17885170" "122690798"
"17885170" "134347125"
"17885170" "150472292"
"17885170" "220876557"
"17939410" "29135759"
"17948837" "1993236"
"17948837" "4730954"
"17948837" "7918037"
"17948837" "13800571"
"17948837" "16961305"
"17948837" "17885170"
"17948837" "18434088"
"17948837" "18740433"
"17948837" "31980339"
"17948837" "32851244"
"17948837" "36901690"
"17948837" "43616734"
"17948837" "53318278"
"17948837" "85585109"
"17948837" "122690798"
"17948837" "150472292"
"17948837" "220876557"
"18434088" "126312"
"18434088" "1993236"
"18434088" "2031644"
"18434088" "4599376"
"18434088" "4730954"
"18434088" "7918037"
"18434088" "13800571"
"18434088" "16961305"
"18434088" "17885170"
"18434088" "17948837"
"18434088" "18740433"
"18434088" "23341310"
"18434088" "32851244"
"18434088" "36901690"
"18434088" "43616734"
"18434088" "53318278"
"18434088" "63277053"
"18434088" "85585109"
"18434088" "106148014"
"18434088" "112498659"
"18434088" "122690798"
"18434088" "134347125"
"18434088" "207972205"
"18434088" "220876557"
"18434088" "232800868"
"18740433" "1993236"
"18740433" "7151356"
"18740433" "7918037"
"18740433" "13800571"
"18740433" "16961305"
"18740433" "17885170"
"18740433" "17948837"
"18740433" "18434088"
"18740433" "32851244"
"18740433" "36901690"
"18740433" "43616734"
"18740433" "53318278"
"18740433" "85585109"
"18740433" "112498659"
"18740433" "122690798"
"18740433" "150472292"
"18740433" "220876557"
"19548389" "54403561"
"22053146" "155074212"
"22053146" "208869524"
"23341310" "4599376"
"23341310" "4757821"
"23341310" "18434088"
"23341310" "43616734"
"23341310" "63277053"
"23341310" "85585109"
"23341310" "106148014"
"23341310" "112498659"
"23341310" "122690798"
"23341310" "134347125"
"23341310" "220876557"
"23870856" "4730954"
"23870856" "13800571"
"23870856" "43616734"
"23870856" "89352727"
"23870856" "106148014"
"24387896" "1993236"
"24387896" "4473958"
"24387896" "4599376"
"24387896" "4730954"
"24387896" "13800571"
"24387896" "85585109"
"24387896" "106148014"
"24387896" "220876557"
"24387896" "232800868"
"26299260" "42161251"
"26299260" "140139072"
"29135759" "17939410"
"29135759" "140139072"
"29135759" "258016766"
"31980339" "1993236"
"31980339" "17948837"
"31980339" "91134659"
"31980339" "288137000"
"32851244" "1993236"
"32851244" "7918037"
"32851244" "13800571"
"32851244" "16961305"
"32851244" "17885170"
"32851244" "17948837"
"32851244" "18434088"
"32851244" "18740433"
"32851244" "36901690"
"32851244" "43616734"
"32851244" "53318278"
"32851244" "85585109"
"32851244" "122690798"
"32851244" "150472292"
"32851244" "232800868"
"36901690" "1993236"
"36901690" "2475524"
"36901690" "4730954"
"36901690" "4757821"
"36901690" "7151356"
"36901690" "7918037"
"36901690" "13800571"
"36901690" "16961305"
"36901690" "17653631"
"36901690" "17885170"
"36901690" "17948837"
"36901690" "18434088"
"36901690" "18740433"
"36901690" "32851244"
"36901690" "43616734"
"36901690" "53318278"
"36901690" "85585109"
"36901690" "122690798"
"36901690" "150472292"
"36901690" "220876557"
"38818464" "66403"
"42161251" "6026527"
"42161251" "26299260"
"42161251" "43616734"
"42161251" "140139072"
"43616734" "1993236"
"43616734" "2475524"
"43616734" "4730954"
"43616734" "7151356"
"43616734" "7918037"
"43616734" "13800571"
"43616734" "16961305"
"43616734" "17653631"
"43616734" "17885170"
"43616734" "17948837"
"43616734" "18434088"
"43616734" "18740433"
"43616734" "23341310"
"43616734" "23870856"
"43616734" "32851244"
"43616734" "36901690"
"43616734" "42161251"
"43616734" "53318278"
"43616734" "85585109"
"43616734" "106148014"
"43616734" "112498659"
"43616734" "122690798"
"43616734" "134347125"
"43616734" "150472292"
"43616734" "220876557"
"49911442" "6223730"
"49911442" "258016766"
"49911442" "275113520"
"52030030" "159972049"
"53318278" "1993236"
"53318278" "4730954"
"53318278" "7151356"
"53318278" "7918037"
"53318278" "13800571"
"53318278" "16961305"
"53318278" "17653631"
"53318278" "17885170"
"53318278" "17948837"
"53318278" "18434088"
"53318278" "18740433"
"53318278" "32851244"
"53318278" "36901690"
"53318278" "43616734"
"53318278" "85585109"
"53318278" "122690798"
"53318278" "150472292"
"53318278" "220876557"
"54403561" "19548389"
"56085746" "1993236"
"63277053" "4432310"
"63277053" "4599376"
"63277053" "4730954"
"63277053" "18434088"
"63277053" "23341310"
"63277053" "85585109"
"63277053" "106148014"
"63277053" "112498659"
"63277053" "134347125"
"63277053" "220876557"
"71848149" "72409965"
"72409965" "71848149"
"72409965" "134767550"
"85585109" "1993236"
"85585109" "2031644"
"85585109" "4473958"
"85585109" "4599376"
"85585109" "4730954"
"85585109" "4757821"
"85585109" "7151356"
"85585109" "7918037"
"85585109" "12931176"
"85585109" "13800571"
"85585109" "16961305"
"85585109" "17885170"
"85585109" "17948837"
"85585109" "18434088"
"85585109" "18740433"
"85585109" "23341310"
"85585109" "24387896"
"85585109" "32851244"
"85585109" "36901690"
"85585109" "43616734"
"85585109" "53318278"
"85585109" "63277053"
"85585109" "106148014"
"85585109" "112498659"
"85585109" "122690798"
"85585109" "134347125"
"85585109" "150472292"
"85585109" "220876557"
"85585109" "232800868"
"89352727" "4730954"
"89352727" "23870856"
"89352727" "112498659"
"90943783" "2162199"
"90943783" "3991024"
"91134659" "1993236"
"91134659" "31980339"
"106148014" "2475524"
"106148014" "4599376"
"106148014" "4730954"
"106148014" "4757821"
"106148014" "16961305"
"106148014" "17885170"
"106148014" "18434088"
"106148014" "23341310"
"106148014" "23870856"
"106148014" "24387896"
"106148014" "43616734"
"106148014" "63277053"
"106148014" "85585109"
"106148014" "112498659"
"106148014" "134347125"
"106148014" "220876557"
"112498659" "1993236"
"112498659" "4599376"
"112498659" "4730954"
"112498659" "12931176"
"112498659" "16961305"
"112498659" "17885170"
"112498659" "18434088"
"112498659" "18740433"
"112498659" "23341310"
"112498659" "43616734"
"112498659" "63277053"
"112498659" "85585109"
"112498659" "89352727"
"112498659" "106148014"
"112498659" "134347125"
"112498659" "150472292"
"112498659" "220876557"
"112498659" "232800868"
"122690798" "1993236"
"122690798" "4599376"
"122690798" "4730954"
"122690798" "7151356"
"122690798" "7918037"
"122690798" "13800571"
"122690798" "16961305"
"122690798" "17885170"
"122690798" "17948837"
"122690798" "18434088"
"122690798" "18740433"
"122690798" "23341310"
"122690798" "32851244"
"122690798" "36901690"
"122690798" "43616734"
"122690798" "53318278"
"122690798" "85585109"
"122690798" "150472292"
"122690798" "220876557"
"134347125" "4473958"
"134347125" "4599376"
"134347125" "4730954"
"134347125" "4757821"
"134347125" "12931176"
"134347125" "13800571"
"134347125" "17885170"
"134347125" "18434088"
"134347125" "23341310"
"134347125" "43616734"
"134347125" "63277053"
"134347125" "85585109"
"134347125" "106148014"
"134347125" "112498659"
"134347125" "220876557"
"134347125" "232800868"
"134767550" "72409965"
"134767550" "258016766"
"140139072" "1993236"
"140139072" "26299260"
"140139072" "29135759"
"140139072" "42161251"
"140139072" "159972049"
"150472292" "1993236"
"150472292" "7151356"
"150472292" "7918037"
"150472292" "13800571"
"150472292" "16961305"
"150472292" "17885170"
"150472292" "17948837"
"150472292" "18740433"
"150472292" "32851244"
"150472292" "36901690"
"150472292" "43616734"
"150472292" "53318278"
"150472292" "85585109"
"150472292" "112498659"
"150472292" "122690798"
"155074212" "1993236"
"155074212" "6026527"
"155074212" "22053146"
"155074212" "262363406"
"159972049" "52030030"
"159972049" "140139072"
"159972049" "224101786"
"177588411" "1328253"
"177588411" "248920335"
"177588411" "306759869"
"179409196" "262363406"
"207972205" "126312"
"207972205" "2031644"
"207972205" "4730954"
"207972205" "18434088"
"208869524" "14944652"
"208869524" "22053146"
"220876557" "1993236"
"220876557" "4599376"
"220876557" "4730954"
"220876557" "7151356"
"220876557" "7918037"
"220876557" "12931176"
"220876557" "13800571"
"220876557" "16961305"
"220876557" "17885170"
"220876557" "17948837"
"220876557" "18434088"
"220876557" "18740433"
"220876557" "23341310"
"220876557" "24387896"
"220876557" "36901690"
"220876557" "43616734"
"220876557" "53318278"
"220876557" "63277053"
"220876557" "85585109"
"220876557" "106148014"
"220876557" "112498659"
"220876557" "122690798"
"220876557" "134347125"
"220876557" "232800868"
"224101786" "159972049"
"232800868" "4473958"
"232800868" "4599376"
"232800868" "4730954"
"232800868" "13800571"
"232800868" "18434088"
"232800868" "24387896"
"232800868" "32851244"
"232800868" "85585109"
"232800868" "112498659"
"232800868" "134347125"
"232800868" "220876557"
"248920335" "177588411"
"258016766" "6223730"
"258016766" "29135759"
"258016766" "49911442"
"258016766" "134767550"
"262363406" "155074212"
"262363406" "179409196"
"262648764" "275113520"
"275113520" "49911442"
"275113520" "262648764"
"288137000" "1993236"
"288137000" "4757821"
"288137000" "31980339"
"306759869" "177588411"
