"id","first_name","last_name","sex","online"
251463,"Мария","Комарова",1,0
1993236,"Филипп","Шер",2,1
3259188,"Анна","Ременец",1,0
4599376,"Иван","Осипов",2,0
4730954,"Шамиль","Трояновский",2,0
4904240,"Павел","Бирюк",2,1
5082628,"Саша","Саяпина",1,1
6934496,"Лизавета","Перцева",1,1
7151356,"Юлия","Цыганова",1,1
7581072,"Полина","Собянина",1,1
7918037,"Аня","Квон",1,0
8437161,"Ваня","Новиков",2,0
9302690,"Руслан","Владимиров",2,0
11275262,"Олька","Семенова",1,1
12251950,"Елена","Спивак",1,0
12281932,"Ivan","Burcev",2,0
12864232,"Андрей","Белый",2,1
13800571,"Лена","Слизень",1,1
16390519,"Булат","Салихов",2,1
16961305,"Егор","Невежин",2,1
17270699,"Вова","Лигай",2,0
17885170,"Никита","Груздков",2,1
17948837,"Кирилл","Чернаков",2,1
18434088,"Роман","Малюшкин",2,0
18740433,"Юра","Сорокин",2,0
19476098,"Влада","Коваленко",1,0
19552005,"Катя","Беляева",1,0
20148216,"Анастасия","Королева",1,0
20243370,"Никита","Копытов",2,1
23341310,"Шамиль","Трояновский",2,0
26382514,"Алёна","Гусева",1,0
31658972,"Кирилл","Кузьмин",2,1
32851244,"Андрей","Малюков",2,0
35696702,"Нико","Белич",2,1
35748071,"Наталия","Харченко",1,0
36901690,"Олеся","Бигун",1,0
38251199,"Дарья","Рыбакова",1,1
42295307,"Денис","Рыбаков",2,0
42309065,"Леся","Карачун",1,1
43616734,"Анна","Судакова",1,1
45450573,"Светлана","Тихонова",1,1
46401447,"Дарья","Кан",1,0
50618308,"Светлана","Забегаева",1,0
51491796,"Макс","Степаненко",2,1
53318278,"Мария","Гарец",1,0
58974822,"Лера","Иванова",1,1
61174498,"Платон","Похваленский",2,0
62699739,"Вячеслав","Мелиоранский",2,0
65639530,"Виталя","Цай",2,0
71556461,"Ольга","Ваваева",1,0
72376851,"Антон","Кузнецов",2,1
74319124,"M!laya)","Lee",1,0
75804326,"Katerina","Shabala",1,1
77004381,"Виктория","Крайтор",1,1
84093986,"Лера","Корзенкова",1,0
85224931,"Анастасия","Тюлькина",1,1
85585109,"Ju","Kostinikova",1,1
87536824,"Катюша","Литвинова",1,0
94396788,"Анна","Карих",1,0
95697896,"Екатерина","Кипаренко",1,1
96928977,"Настя","Хан",1,0
97092188,"Гульнур","Ермагамбетова",1,0
99266474,"Андрей","Симаков",2,1
105120918,"Анжеличка","Хван",1,0
109484157,"Мария","Симакова",1,0
115634884,"Виктория","Кондратьева",1,0
136724390,"Elena","Harchevnikova",1,0
136821497,"Елизавета","Стовбчатая",1,1
138143419,"Влад","Фисенко",2,0
138723541,"Глеб","Бавыкин",2,0
139853612,"Людмила","Ефимович",1,0
141192710,"Margarita","Nelopko",1,0
141523481,"Артём","Белоконский",2,1
142587378,"Григорий","Буянов",2,0
143820982,"Дмитрий","Буянов",2,1
147361787,"Марк","Андрусов",2,1
147976867,"Аня","Волкова",1,0
148862861,"Анатолий","Пак",2,1
150472292,"Антон","Немцев",2,1
151549797,"Кристина","Александровна",1,1
151975687,"Olya","Yugay",1,0
152069444,"Дима","Какаулин",2,0
154340735,"Серёня","Суринов",2,1
154347695,"Александр","Ким",2,1
159304405,"Андрей","Ли",2,0
159313028,"Костя","Кут",2,0
162868822,"Артём","Романенко",2,0
163760287,"Аня","Соколова",1,1
164615693,"Павел","Ким",2,0
165209287,"Лёха","Ким",2,1
166385800,"Андрей","Колосов",2,0
169868585,"Лика","Чумакова",1,1
172352058,"Василий","Светличный",2,1
173176273,"Аделина","Баймуратова",1,0
174319214,"Александр","Логунов",2,0
174933821,"Артур","Сабиров",2,0
175904183,"Вероника","Манукян",1,1
178167499,"Артём","Малярчук",2,0
178542787,"Влад","Ли",2,1
182761644,"Юлия","Ким",1,1
184700941,"Екатерина","Иванова",1,0
185763665,"Елена","Ли",1,0
186586982,"Мавлуда","Ташбаева",1,0
189780444,"Артём","Краснов",2,0
190509198,"Карина","Ребер",1,1
191120503,"Роман","Савонов",2,1
191659649,"Мария","Горкина",1,1
192074234,"Юлия","Цой",1,0
195627056,"Сергей","Ли",2,0
196851533,"Стас","Лигай",2,0
204970747,"Софа","Казаковцева",1,0
205285892,"Владимир","Ким",2,1
208486824,"Елена","Юмагулова",1,1
220497740,"Екатерина","Романова",1,0
220584097,"Жека","Агаларов",2,0
220876557,"Лия","Эл",1,1
232037563,"Снежана","Ким",1,0
233401493,"Денис","Пак",2,0
233721226,"Сергей","Удовиченко",2,0
236176496,"Татьяна","Дё",1,0
237175990,"Лена","Пак",1,0
252815506,"Juliet","Kim",1,0
257227251,"Виолетта","Ким",1,0
273901668,"Андрей","Колосов",2,1
275641901,"Bk","Kuro",1,0
306531078,"Star","Starry",1,0
316392350,"Паша","Битейкин",2,0
317946040,"Лиля","Фалькова",1,1
"V1" "V2"
"251463" "1993236"
"251463" "4599376"
"251463" "4730954"
"251463" "16390519"
"251463" "16961305"
"251463" "17885170"
"251463" "18434088"
"251463" "31658972"
"251463" "42309065"
"251463" "43616734"
"251463" "85585109"
"251463" "220876557"
"1993236" "251463"
"1993236" "7151356"
"1993236" "7918037"
"1993236" "12251950"
"1993236" "13800571"
"1993236" "16390519"
"1993236" "16961305"
"1993236" "17885170"
"1993236" "17948837"
"1993236" "18434088"
"1993236" "18740433"
"1993236" "31658972"
"1993236" "32851244"
"1993236" "35696702"
"1993236" "36901690"
"1993236" "42309065"
"1993236" "43616734"
"1993236" "53318278"
"1993236" "61174498"
"1993236" "85585109"
"1993236" "150472292"
"1993236" "208486824"
"1993236" "220876557"
"3259188" "38251199"
"3259188" "75804326"
"3259188" "94396788"
"3259188" "190509198"
"4599376" "251463"
"4599376" "4730954"
"4599376" "6934496"
"4599376" "16390519"
"4599376" "16961305"
"4599376" "17885170"
"4599376" "18434088"
"4599376" "23341310"
"4599376" "42309065"
"4599376" "61174498"
"4599376" "85585109"
"4599376" "208486824"
"4599376" "220876557"
"4730954" "251463"
"4730954" "4599376"
"4730954" "6934496"
"4730954" "13800571"
"4730954" "16390519"
"4730954" "16961305"
"4730954" "17885170"
"4730954" "17948837"
"4730954" "18434088"
"4730954" "20243370"
"4730954" "26382514"
"4730954" "31658972"
"4730954" "36901690"
"4730954" "42309065"
"4730954" "43616734"
"4730954" "53318278"
"4730954" "62699739"
"4730954" "85585109"
"4730954" "136724390"
"4730954" "208486824"
"4730954" "220876557"
"4904240" "12864232"
"6934496" "4599376"
"6934496" "4730954"
"6934496" "19476098"
"6934496" "19552005"
"6934496" "62699739"
"6934496" "275641901"
"7151356" "1993236"
"7151356" "7918037"
"7151356" "12251950"
"7151356" "13800571"
"7151356" "16961305"
"7151356" "17885170"
"7151356" "18740433"
"7151356" "36901690"
"7151356" "43616734"
"7151356" "53318278"
"7151356" "85585109"
"7151356" "150472292"
"7151356" "208486824"
"7151356" "220876557"
"7581072" "35748071"
"7581072" "42295307"
"7581072" "46401447"
"7581072" "77004381"
"7581072" "87536824"
"7581072" "95697896"
"7581072" "99266474"
"7581072" "105120918"
"7581072" "109484157"
"7581072" "138143419"
"7581072" "139853612"
"7581072" "141192710"
"7581072" "141523481"
"7581072" "143820982"
"7581072" "147361787"
"7581072" "148862861"
"7581072" "154340735"
"7581072" "154347695"
"7581072" "159313028"
"7581072" "166385800"
"7581072" "169868585"
"7581072" "172352058"
"7581072" "175904183"
"7581072" "182761644"
"7581072" "184700941"
"7581072" "185763665"
"7581072" "186586982"
"7581072" "189780444"
"7581072" "191120503"
"7581072" "191659649"
"7581072" "205285892"
"7581072" "233401493"
"7581072" "233721226"
"7581072" "273901668"
"7918037" "1993236"
"7918037" "7151356"
"7918037" "12251950"
"7918037" "13800571"
"7918037" "16961305"
"7918037" "17885170"
"7918037" "17948837"
"7918037" "18434088"
"7918037" "18740433"
"7918037" "31658972"
"7918037" "32851244"
"7918037" "35696702"
"7918037" "36901690"
"7918037" "43616734"
"7918037" "53318278"
"7918037" "85585109"
"7918037" "150472292"
"7918037" "208486824"
"7918037" "220876557"
"8437161" "9302690"
"8437161" "11275262"
"8437161" "12281932"
"8437161" "19476098"
"8437161" "20148216"
"8437161" "20243370"
"8437161" "51491796"
"8437161" "62699739"
"8437161" "138723541"
"8437161" "174933821"
"9302690" "8437161"
"9302690" "11275262"
"9302690" "12281932"
"9302690" "20148216"
"9302690" "20243370"
"9302690" "45450573"
"9302690" "58974822"
"9302690" "138723541"
"9302690" "174933821"
"11275262" "8437161"
"11275262" "9302690"
"11275262" "12281932"
"11275262" "20148216"
"11275262" "20243370"
"11275262" "72376851"
"11275262" "174933821"
"12251950" "1993236"
"12251950" "7151356"
"12251950" "7918037"
"12251950" "13800571"
"12251950" "16961305"
"12251950" "17885170"
"12251950" "18434088"
"12251950" "36901690"
"12251950" "43616734"
"12251950" "53318278"
"12281932" "8437161"
"12281932" "9302690"
"12281932" "11275262"
"12281932" "19552005"
"12281932" "20148216"
"12281932" "20243370"
"12281932" "51491796"
"12281932" "138723541"
"12281932" "174933821"
"12864232" "4904240"
"12864232" "75804326"
"13800571" "1993236"
"13800571" "4730954"
"13800571" "7151356"
"13800571" "7918037"
"13800571" "12251950"
"13800571" "16390519"
"13800571" "16961305"
"13800571" "17885170"
"13800571" "17948837"
"13800571" "18434088"
"13800571" "18740433"
"13800571" "31658972"
"13800571" "32851244"
"13800571" "36901690"
"13800571" "42309065"
"13800571" "43616734"
"13800571" "53318278"
"13800571" "61174498"
"13800571" "85585109"
"13800571" "136724390"
"13800571" "150472292"
"13800571" "208486824"
"13800571" "220876557"
"16390519" "251463"
"16390519" "1993236"
"16390519" "4599376"
"16390519" "4730954"
"16390519" "13800571"
"16390519" "16961305"
"16390519" "17885170"
"16390519" "17948837"
"16390519" "18434088"
"16390519" "18740433"
"16390519" "23341310"
"16390519" "31658972"
"16390519" "32851244"
"16390519" "36901690"
"16390519" "42309065"
"16390519" "43616734"
"16390519" "53318278"
"16390519" "61174498"
"16390519" "85585109"
"16390519" "136724390"
"16390519" "220876557"
"16961305" "251463"
"16961305" "1993236"
"16961305" "4599376"
"16961305" "4730954"
"16961305" "7151356"
"16961305" "7918037"
"16961305" "12251950"
"16961305" "13800571"
"16961305" "16390519"
"16961305" "17885170"
"16961305" "17948837"
"16961305" "18434088"
"16961305" "18740433"
"16961305" "31658972"
"16961305" "32851244"
"16961305" "36901690"
"16961305" "43616734"
"16961305" "53318278"
"16961305" "85585109"
"16961305" "150472292"
"16961305" "208486824"
"16961305" "220876557"
"17885170" "251463"
"17885170" "1993236"
"17885170" "4599376"
"17885170" "4730954"
"17885170" "7151356"
"17885170" "7918037"
"17885170" "12251950"
"17885170" "13800571"
"17885170" "16390519"
"17885170" "16961305"
"17885170" "17948837"
"17885170" "18434088"
"17885170" "18740433"
"17885170" "26382514"
"17885170" "31658972"
"17885170" "32851244"
"17885170" "35696702"
"17885170" "36901690"
"17885170" "42309065"
"17885170" "43616734"
"17885170" "53318278"
"17885170" "61174498"
"17885170" "85585109"
"17885170" "136724390"
"17885170" "150472292"
"17885170" "208486824"
"17885170" "220876557"
"17948837" "1993236"
"17948837" "4730954"
"17948837" "7918037"
"17948837" "13800571"
"17948837" "16390519"
"17948837" "16961305"
"17948837" "17885170"
"17948837" "18434088"
"17948837" "18740433"
"17948837" "32851244"
"17948837" "36901690"
"17948837" "43616734"
"17948837" "53318278"
"17948837" "61174498"
"17948837" "85585109"
"17948837" "150472292"
"17948837" "208486824"
"17948837" "220876557"
"18434088" "251463"
"18434088" "1993236"
"18434088" "4599376"
"18434088" "4730954"
"18434088" "7918037"
"18434088" "12251950"
"18434088" "13800571"
"18434088" "16390519"
"18434088" "16961305"
"18434088" "17885170"
"18434088" "17948837"
"18434088" "18740433"
"18434088" "23341310"
"18434088" "31658972"
"18434088" "32851244"
"18434088" "36901690"
"18434088" "42309065"
"18434088" "43616734"
"18434088" "53318278"
"18434088" "85585109"
"18434088" "136724390"
"18434088" "208486824"
"18434088" "220876557"
"18740433" "1993236"
"18740433" "7151356"
"18740433" "7918037"
"18740433" "13800571"
"18740433" "16390519"
"18740433" "16961305"
"18740433" "17885170"
"18740433" "17948837"
"18740433" "18434088"
"18740433" "31658972"
"18740433" "32851244"
"18740433" "36901690"
"18740433" "42309065"
"18740433" "43616734"
"18740433" "53318278"
"18740433" "61174498"
"18740433" "85585109"
"18740433" "136724390"
"18740433" "150472292"
"18740433" "208486824"
"18740433" "220876557"
"19476098" "6934496"
"19476098" "8437161"
"19476098" "19552005"
"19476098" "20243370"
"19476098" "62699739"
"19552005" "6934496"
"19552005" "12281932"
"19552005" "19476098"
"19552005" "20243370"
"19552005" "58974822"
"19552005" "85224931"
"20148216" "8437161"
"20148216" "9302690"
"20148216" "11275262"
"20148216" "12281932"
"20148216" "20243370"
"20148216" "51491796"
"20148216" "62699739"
"20148216" "72376851"
"20148216" "138723541"
"20243370" "4730954"
"20243370" "8437161"
"20243370" "9302690"
"20243370" "11275262"
"20243370" "12281932"
"20243370" "19476098"
"20243370" "19552005"
"20243370" "20148216"
"20243370" "23341310"
"20243370" "26382514"
"20243370" "36901690"
"20243370" "42309065"
"20243370" "45450573"
"20243370" "50618308"
"20243370" "51491796"
"20243370" "53318278"
"20243370" "58974822"
"20243370" "62699739"
"20243370" "85585109"
"20243370" "138723541"
"20243370" "174933821"
"20243370" "317946040"
"23341310" "4599376"
"23341310" "16390519"
"23341310" "18434088"
"23341310" "20243370"
"23341310" "26382514"
"23341310" "31658972"
"23341310" "42309065"
"23341310" "43616734"
"23341310" "85585109"
"23341310" "136724390"
"23341310" "208486824"
"23341310" "220876557"
"26382514" "4730954"
"26382514" "17885170"
"26382514" "20243370"
"26382514" "23341310"
"26382514" "43616734"
"26382514" "71556461"
"31658972" "251463"
"31658972" "1993236"
"31658972" "4730954"
"31658972" "7918037"
"31658972" "13800571"
"31658972" "16390519"
"31658972" "16961305"
"31658972" "17885170"
"31658972" "18434088"
"31658972" "18740433"
"31658972" "23341310"
"31658972" "32851244"
"31658972" "42309065"
"31658972" "43616734"
"31658972" "53318278"
"31658972" "61174498"
"31658972" "85585109"
"31658972" "136724390"
"31658972" "220876557"
"32851244" "1993236"
"32851244" "7918037"
"32851244" "13800571"
"32851244" "16390519"
"32851244" "16961305"
"32851244" "17885170"
"32851244" "17948837"
"32851244" "18434088"
"32851244" "18740433"
"32851244" "31658972"
"32851244" "35696702"
"32851244" "36901690"
"32851244" "42309065"
"32851244" "43616734"
"32851244" "53318278"
"32851244" "61174498"
"32851244" "85585109"
"32851244" "150472292"
"32851244" "208486824"
"35696702" "1993236"
"35696702" "7918037"
"35696702" "17885170"
"35696702" "32851244"
"35696702" "36901690"
"35696702" "43616734"
"35696702" "150472292"
"35696702" "220876557"
"35748071" "7581072"
"35748071" "46401447"
"35748071" "77004381"
"35748071" "87536824"
"35748071" "95697896"
"35748071" "99266474"
"35748071" "105120918"
"35748071" "138143419"
"35748071" "139853612"
"35748071" "141192710"
"35748071" "141523481"
"35748071" "147361787"
"35748071" "154340735"
"35748071" "154347695"
"35748071" "159313028"
"35748071" "166385800"
"35748071" "169868585"
"35748071" "172352058"
"35748071" "182761644"
"35748071" "184700941"
"35748071" "185763665"
"35748071" "186586982"
"35748071" "189780444"
"35748071" "220584097"
"35748071" "233401493"
"35748071" "233721226"
"35748071" "273901668"
"36901690" "1993236"
"36901690" "4730954"
"36901690" "7151356"
"36901690" "7918037"
"36901690" "12251950"
"36901690" "13800571"
"36901690" "16390519"
"36901690" "16961305"
"36901690" "17885170"
"36901690" "17948837"
"36901690" "18434088"
"36901690" "18740433"
"36901690" "20243370"
"36901690" "32851244"
"36901690" "35696702"
"36901690" "43616734"
"36901690" "53318278"
"36901690" "62699739"
"36901690" "85585109"
"36901690" "150472292"
"36901690" "208486824"
"36901690" "220876557"
"38251199" "3259188"
"38251199" "75804326"
"38251199" "190509198"
"42295307" "7581072"
"42295307" "46401447"
"42295307" "75804326"
"42295307" "99266474"
"42295307" "109484157"
"42295307" "141192710"
"42295307" "141523481"
"42295307" "169868585"
"42295307" "182761644"
"42295307" "184700941"
"42295307" "191659649"
"42295307" "233401493"
"42295307" "316392350"
"42309065" "251463"
"42309065" "1993236"
"42309065" "4599376"
"42309065" "4730954"
"42309065" "13800571"
"42309065" "16390519"
"42309065" "17885170"
"42309065" "18434088"
"42309065" "18740433"
"42309065" "20243370"
"42309065" "23341310"
"42309065" "31658972"
"42309065" "32851244"
"42309065" "43616734"
"42309065" "53318278"
"42309065" "85585109"
"42309065" "220876557"
"43616734" "251463"
"43616734" "1993236"
"43616734" "4730954"
"43616734" "7151356"
"43616734" "7918037"
"43616734" "12251950"
"43616734" "13800571"
"43616734" "16390519"
"43616734" "16961305"
"43616734" "17885170"
"43616734" "17948837"
"43616734" "18434088"
"43616734" "18740433"
"43616734" "23341310"
"43616734" "26382514"
"43616734" "31658972"
"43616734" "32851244"
"43616734" "35696702"
"43616734" "36901690"
"43616734" "42309065"
"43616734" "53318278"
"43616734" "61174498"
"43616734" "85585109"
"43616734" "136724390"
"43616734" "150472292"
"43616734" "208486824"
"43616734" "220876557"
"45450573" "9302690"
"45450573" "20243370"
"45450573" "72376851"
"45450573" "275641901"
"46401447" "7581072"
"46401447" "35748071"
"46401447" "42295307"
"46401447" "77004381"
"46401447" "87536824"
"46401447" "95697896"
"46401447" "99266474"
"46401447" "105120918"
"46401447" "109484157"
"46401447" "138143419"
"46401447" "139853612"
"46401447" "141192710"
"46401447" "141523481"
"46401447" "147361787"
"46401447" "148862861"
"46401447" "154340735"
"46401447" "154347695"
"46401447" "159313028"
"46401447" "163760287"
"46401447" "166385800"
"46401447" "169868585"
"46401447" "172352058"
"46401447" "174319214"
"46401447" "175904183"
"46401447" "182761644"
"46401447" "184700941"
"46401447" "185763665"
"46401447" "189780444"
"46401447" "191120503"
"46401447" "220584097"
"46401447" "233401493"
"46401447" "233721226"
"46401447" "273901668"
"50618308" "20243370"
"50618308" "275641901"
"51491796" "8437161"
"51491796" "12281932"
"51491796" "20148216"
"51491796" "20243370"
"51491796" "62699739"
"51491796" "85585109"
"51491796" "138723541"
"51491796" "174933821"
"53318278" "1993236"
"53318278" "4730954"
"53318278" "7151356"
"53318278" "7918037"
"53318278" "12251950"
"53318278" "13800571"
"53318278" "16390519"
"53318278" "16961305"
"53318278" "17885170"
"53318278" "17948837"
"53318278" "18434088"
"53318278" "18740433"
"53318278" "20243370"
"53318278" "31658972"
"53318278" "32851244"
"53318278" "36901690"
"53318278" "42309065"
"53318278" "43616734"
"53318278" "62699739"
"53318278" "85585109"
"53318278" "150472292"
"53318278" "208486824"
"53318278" "220876557"
"58974822" "9302690"
"58974822" "19552005"
"58974822" "20243370"
"58974822" "71556461"
"58974822" "85224931"
"58974822" "174933821"
"61174498" "1993236"
"61174498" "4599376"
"61174498" "13800571"
"61174498" "16390519"
"61174498" "17885170"
"61174498" "17948837"
"61174498" "18740433"
"61174498" "31658972"
"61174498" "32851244"
"61174498" "43616734"
"61174498" "136724390"
"61174498" "150472292"
"61174498" "220876557"
"62699739" "4730954"
"62699739" "6934496"
"62699739" "8437161"
"62699739" "19476098"
"62699739" "20148216"
"62699739" "20243370"
"62699739" "36901690"
"62699739" "51491796"
"62699739" "53318278"
"62699739" "138723541"
"65639530" "151549797"
"65639530" "178542787"
"65639530" "236176496"
"71556461" "26382514"
"71556461" "58974822"
"71556461" "85224931"
"72376851" "11275262"
"72376851" "20148216"
"72376851" "45450573"
"74319124" "151549797"
"74319124" "164615693"
"74319124" "165209287"
"75804326" "3259188"
"75804326" "12864232"
"75804326" "38251199"
"75804326" "42295307"
"75804326" "94396788"
"75804326" "151549797"
"75804326" "159304405"
"75804326" "178167499"
"75804326" "182761644"
"75804326" "190509198"
"75804326" "191659649"
"75804326" "220497740"
"77004381" "7581072"
"77004381" "35748071"
"77004381" "46401447"
"77004381" "87536824"
"77004381" "95697896"
"77004381" "99266474"
"77004381" "105120918"
"77004381" "138143419"
"77004381" "139853612"
"77004381" "141192710"
"77004381" "141523481"
"77004381" "147361787"
"77004381" "154340735"
"77004381" "154347695"
"77004381" "159313028"
"77004381" "162868822"
"77004381" "163760287"
"77004381" "164615693"
"77004381" "166385800"
"77004381" "169868585"
"77004381" "172352058"
"77004381" "175904183"
"77004381" "182761644"
"77004381" "184700941"
"77004381" "185763665"
"77004381" "189780444"
"77004381" "191120503"
"77004381" "191659649"
"77004381" "233401493"
"77004381" "233721226"
"77004381" "273901668"
"85224931" "19552005"
"85224931" "58974822"
"85224931" "71556461"
"85224931" "204970747"
"85585109" "251463"
"85585109" "1993236"
"85585109" "4599376"
"85585109" "4730954"
"85585109" "7151356"
"85585109" "7918037"
"85585109" "13800571"
"85585109" "16390519"
"85585109" "16961305"
"85585109" "17885170"
"85585109" "17948837"
"85585109" "18434088"
"85585109" "18740433"
"85585109" "20243370"
"85585109" "23341310"
"85585109" "31658972"
"85585109" "32851244"
"85585109" "36901690"
"85585109" "42309065"
"85585109" "43616734"
"85585109" "51491796"
"85585109" "53318278"
"85585109" "150472292"
"85585109" "208486824"
"85585109" "220876557"
"87536824" "7581072"
"87536824" "35748071"
"87536824" "46401447"
"87536824" "77004381"
"87536824" "95697896"
"87536824" "99266474"
"87536824" "105120918"
"87536824" "138143419"
"87536824" "139853612"
"87536824" "141192710"
"87536824" "141523481"
"87536824" "147361787"
"87536824" "154340735"
"87536824" "154347695"
"87536824" "159313028"
"87536824" "163760287"
"87536824" "166385800"
"87536824" "169868585"
"87536824" "172352058"
"87536824" "174319214"
"87536824" "182761644"
"87536824" "184700941"
"87536824" "185763665"
"87536824" "189780444"
"87536824" "220584097"
"87536824" "233401493"
"87536824" "233721226"
"87536824" "273901668"
"94396788" "3259188"
"94396788" "75804326"
"94396788" "190509198"
"94396788" "220497740"
"95697896" "7581072"
"95697896" "35748071"
"95697896" "46401447"
"95697896" "77004381"
"95697896" "87536824"
"95697896" "99266474"
"95697896" "115634884"
"95697896" "147361787"
"95697896" "154340735"
"95697896" "162868822"
"95697896" "163760287"
"95697896" "169868585"
"95697896" "175904183"
"95697896" "184700941"
"95697896" "186586982"
"95697896" "191659649"
"96928977" "99266474"
"96928977" "141192710"
"96928977" "154347695"
"96928977" "182761644"
"99266474" "7581072"
"99266474" "35748071"
"99266474" "42295307"
"99266474" "46401447"
"99266474" "77004381"
"99266474" "87536824"
"99266474" "95697896"
"99266474" "96928977"
"99266474" "109484157"
"99266474" "138143419"
"99266474" "139853612"
"99266474" "141192710"
"99266474" "141523481"
"99266474" "143820982"
"99266474" "147361787"
"99266474" "148862861"
"99266474" "154340735"
"99266474" "154347695"
"99266474" "159313028"
"99266474" "163760287"
"99266474" "165209287"
"99266474" "166385800"
"99266474" "169868585"
"99266474" "172352058"
"99266474" "174319214"
"99266474" "175904183"
"99266474" "182761644"
"99266474" "184700941"
"99266474" "189780444"
"99266474" "191659649"
"99266474" "220584097"
"99266474" "233401493"
"99266474" "273901668"
"99266474" "316392350"
"105120918" "7581072"
"105120918" "35748071"
"105120918" "46401447"
"105120918" "77004381"
"105120918" "87536824"
"105120918" "166385800"
"105120918" "182761644"
"105120918" "184700941"
"105120918" "185763665"
"109484157" "7581072"
"109484157" "42295307"
"109484157" "46401447"
"109484157" "99266474"
"109484157" "141523481"
"109484157" "169868585"
"109484157" "172352058"
"109484157" "191659649"
"109484157" "220584097"
"109484157" "316392350"
"115634884" "95697896"
"115634884" "169868585"
"115634884" "173176273"
"115634884" "175904183"
"115634884" "186586982"
"136724390" "4730954"
"136724390" "13800571"
"136724390" "16390519"
"136724390" "17885170"
"136724390" "18434088"
"136724390" "18740433"
"136724390" "23341310"
"136724390" "31658972"
"136724390" "43616734"
"136724390" "61174498"
"136724390" "220876557"
"138143419" "7581072"
"138143419" "35748071"
"138143419" "46401447"
"138143419" "77004381"
"138143419" "87536824"
"138143419" "99266474"
"138143419" "141192710"
"138143419" "141523481"
"138143419" "154340735"
"138143419" "154347695"
"138143419" "159313028"
"138143419" "163760287"
"138143419" "166385800"
"138143419" "172352058"
"138143419" "184700941"
"138143419" "185763665"
"138143419" "189780444"
"138143419" "220584097"
"138143419" "233401493"
"138143419" "233721226"
"138143419" "273901668"
"138723541" "8437161"
"138723541" "9302690"
"138723541" "12281932"
"138723541" "20148216"
"138723541" "20243370"
"138723541" "51491796"
"138723541" "62699739"
"138723541" "174933821"
"139853612" "7581072"
"139853612" "35748071"
"139853612" "46401447"
"139853612" "77004381"
"139853612" "87536824"
"139853612" "99266474"
"139853612" "141192710"
"139853612" "141523481"
"139853612" "147361787"
"139853612" "154347695"
"139853612" "159313028"
"139853612" "169868585"
"139853612" "175904183"
"139853612" "184700941"
"139853612" "185763665"
"139853612" "186586982"
"139853612" "191659649"
"139853612" "273901668"
"141192710" "7581072"
"141192710" "35748071"
"141192710" "42295307"
"141192710" "46401447"
"141192710" "77004381"
"141192710" "87536824"
"141192710" "96928977"
"141192710" "99266474"
"141192710" "138143419"
"141192710" "139853612"
"141192710" "141523481"
"141192710" "154340735"
"141192710" "154347695"
"141192710" "159313028"
"141192710" "162868822"
"141192710" "172352058"
"141192710" "174319214"
"141192710" "182761644"
"141192710" "184700941"
"141192710" "186586982"
"141192710" "189780444"
"141192710" "220584097"
"141192710" "273901668"
"141523481" "7581072"
"141523481" "35748071"
"141523481" "42295307"
"141523481" "46401447"
"141523481" "77004381"
"141523481" "87536824"
"141523481" "99266474"
"141523481" "109484157"
"141523481" "138143419"
"141523481" "139853612"
"141523481" "141192710"
"141523481" "143820982"
"141523481" "147361787"
"141523481" "148862861"
"141523481" "154340735"
"141523481" "154347695"
"141523481" "159313028"
"141523481" "162868822"
"141523481" "163760287"
"141523481" "166385800"
"141523481" "169868585"
"141523481" "172352058"
"141523481" "174319214"
"141523481" "182761644"
"141523481" "184700941"
"141523481" "189780444"
"141523481" "191120503"
"141523481" "220584097"
"141523481" "273901668"
"141523481" "316392350"
"142587378" "143820982"
"142587378" "147361787"
"142587378" "148862861"
"142587378" "154340735"
"142587378" "154347695"
"142587378" "162868822"
"142587378" "169868585"
"142587378" "173176273"
"142587378" "174319214"
"143820982" "7581072"
"143820982" "99266474"
"143820982" "141523481"
"143820982" "142587378"
"143820982" "147361787"
"143820982" "148862861"
"143820982" "154340735"
"143820982" "154347695"
"143820982" "162868822"
"143820982" "173176273"
"143820982" "174319214"
"147361787" "7581072"
"147361787" "35748071"
"147361787" "46401447"
"147361787" "77004381"
"147361787" "87536824"
"147361787" "95697896"
"147361787" "99266474"
"147361787" "139853612"
"147361787" "141523481"
"147361787" "142587378"
"147361787" "143820982"
"147361787" "148862861"
"147361787" "154340735"
"147361787" "154347695"
"147361787" "165209287"
"147361787" "169868585"
"147361787" "172352058"
"147361787" "173176273"
"147361787" "174319214"
"147361787" "184700941"
"147976867" "159304405"
"147976867" "164615693"
"147976867" "165209287"
"147976867" "195627056"
"147976867" "236176496"
"148862861" "7581072"
"148862861" "46401447"
"148862861" "99266474"
"148862861" "141523481"
"148862861" "142587378"
"148862861" "143820982"
"148862861" "147361787"
"148862861" "154340735"
"148862861" "154347695"
"148862861" "162868822"
"148862861" "165209287"
"148862861" "172352058"
"148862861" "173176273"
"148862861" "174319214"
"148862861" "185763665"
"148862861" "191120503"
"148862861" "191659649"
"148862861" "236176496"
"150472292" "1993236"
"150472292" "7151356"
"150472292" "7918037"
"150472292" "13800571"
"150472292" "16961305"
"150472292" "17885170"
"150472292" "17948837"
"150472292" "18740433"
"150472292" "32851244"
"150472292" "35696702"
"150472292" "36901690"
"150472292" "43616734"
"150472292" "53318278"
"150472292" "61174498"
"150472292" "85585109"
"150472292" "208486824"
"151549797" "65639530"
"151549797" "74319124"
"151549797" "75804326"
"151549797" "164615693"
"151549797" "165209287"
"151549797" "178542787"
"151549797" "196851533"
"151549797" "252815506"
"152069444" "169868585"
"152069444" "182761644"
"152069444" "189780444"
"152069444" "233401493"
"154340735" "7581072"
"154340735" "35748071"
"154340735" "46401447"
"154340735" "77004381"
"154340735" "87536824"
"154340735" "95697896"
"154340735" "99266474"
"154340735" "138143419"
"154340735" "141192710"
"154340735" "141523481"
"154340735" "142587378"
"154340735" "143820982"
"154340735" "147361787"
"154340735" "148862861"
"154340735" "154347695"
"154340735" "159313028"
"154340735" "166385800"
"154340735" "172352058"
"154340735" "173176273"
"154340735" "175904183"
"154340735" "182761644"
"154340735" "184700941"
"154340735" "185763665"
"154340735" "189780444"
"154340735" "220584097"
"154340735" "233401493"
"154340735" "233721226"
"154340735" "273901668"
"154347695" "7581072"
"154347695" "35748071"
"154347695" "46401447"
"154347695" "77004381"
"154347695" "87536824"
"154347695" "96928977"
"154347695" "99266474"
"154347695" "138143419"
"154347695" "139853612"
"154347695" "141192710"
"154347695" "141523481"
"154347695" "142587378"
"154347695" "143820982"
"154347695" "147361787"
"154347695" "148862861"
"154347695" "154340735"
"154347695" "159304405"
"154347695" "159313028"
"154347695" "162868822"
"154347695" "165209287"
"154347695" "166385800"
"154347695" "169868585"
"154347695" "172352058"
"154347695" "174319214"
"154347695" "175904183"
"154347695" "182761644"
"154347695" "184700941"
"154347695" "185763665"
"154347695" "189780444"
"154347695" "191120503"
"154347695" "220584097"
"154347695" "233401493"
"154347695" "233721226"
"154347695" "236176496"
"159304405" "75804326"
"159304405" "147976867"
"159304405" "154347695"
"159304405" "195627056"
"159304405" "205285892"
"159304405" "236176496"
"159313028" "7581072"
"159313028" "35748071"
"159313028" "46401447"
"159313028" "77004381"
"159313028" "87536824"
"159313028" "99266474"
"159313028" "138143419"
"159313028" "139853612"
"159313028" "141192710"
"159313028" "141523481"
"159313028" "154340735"
"159313028" "154347695"
"159313028" "166385800"
"159313028" "172352058"
"159313028" "182761644"
"159313028" "184700941"
"159313028" "185763665"
"159313028" "189780444"
"159313028" "233401493"
"159313028" "233721226"
"159313028" "273901668"
"162868822" "77004381"
"162868822" "95697896"
"162868822" "141192710"
"162868822" "141523481"
"162868822" "142587378"
"162868822" "143820982"
"162868822" "148862861"
"162868822" "154347695"
"162868822" "164615693"
"162868822" "174319214"
"162868822" "185763665"
"162868822" "191120503"
"163760287" "46401447"
"163760287" "77004381"
"163760287" "87536824"
"163760287" "95697896"
"163760287" "99266474"
"163760287" "138143419"
"163760287" "141523481"
"163760287" "169868585"
"163760287" "172352058"
"163760287" "191659649"
"164615693" "74319124"
"164615693" "77004381"
"164615693" "147976867"
"164615693" "151549797"
"164615693" "162868822"
"164615693" "165209287"
"165209287" "74319124"
"165209287" "99266474"
"165209287" "147361787"
"165209287" "147976867"
"165209287" "148862861"
"165209287" "151549797"
"165209287" "154347695"
"165209287" "164615693"
"165209287" "172352058"
"165209287" "185763665"
"165209287" "189780444"
"165209287" "236176496"
"166385800" "7581072"
"166385800" "35748071"
"166385800" "46401447"
"166385800" "77004381"
"166385800" "87536824"
"166385800" "99266474"
"166385800" "105120918"
"166385800" "138143419"
"166385800" "141523481"
"166385800" "154340735"
"166385800" "154347695"
"166385800" "159313028"
"166385800" "172352058"
"166385800" "182761644"
"166385800" "184700941"
"166385800" "185763665"
"166385800" "189780444"
"166385800" "220584097"
"166385800" "233401493"
"166385800" "233721226"
"166385800" "273901668"
"169868585" "7581072"
"169868585" "35748071"
"169868585" "42295307"
"169868585" "46401447"
"169868585" "77004381"
"169868585" "87536824"
"169868585" "95697896"
"169868585" "99266474"
"169868585" "109484157"
"169868585" "115634884"
"169868585" "139853612"
"169868585" "141523481"
"169868585" "142587378"
"169868585" "147361787"
"169868585" "152069444"
"169868585" "154347695"
"169868585" "163760287"
"169868585" "172352058"
"169868585" "175904183"
"169868585" "184700941"
"169868585" "186586982"
"169868585" "220584097"
"172352058" "7581072"
"172352058" "35748071"
"172352058" "46401447"
"172352058" "77004381"
"172352058" "87536824"
"172352058" "99266474"
"172352058" "109484157"
"172352058" "138143419"
"172352058" "141192710"
"172352058" "141523481"
"172352058" "147361787"
"172352058" "148862861"
"172352058" "154340735"
"172352058" "154347695"
"172352058" "159313028"
"172352058" "163760287"
"172352058" "165209287"
"172352058" "166385800"
"172352058" "169868585"
"172352058" "174319214"
"172352058" "182761644"
"172352058" "184700941"
"172352058" "185763665"
"172352058" "189780444"
"172352058" "220584097"
"172352058" "233401493"
"172352058" "233721226"
"172352058" "273901668"
"173176273" "115634884"
"173176273" "142587378"
"173176273" "143820982"
"173176273" "147361787"
"173176273" "148862861"
"173176273" "154340735"
"173176273" "186586982"
"174319214" "46401447"
"174319214" "87536824"
"174319214" "99266474"
"174319214" "141192710"
"174319214" "141523481"
"174319214" "142587378"
"174319214" "143820982"
"174319214" "147361787"
"174319214" "148862861"
"174319214" "154347695"
"174319214" "162868822"
"174319214" "172352058"
"174319214" "185763665"
"174933821" "8437161"
"174933821" "9302690"
"174933821" "11275262"
"174933821" "12281932"
"174933821" "20243370"
"174933821" "51491796"
"174933821" "58974822"
"174933821" "138723541"
"175904183" "7581072"
"175904183" "46401447"
"175904183" "77004381"
"175904183" "95697896"
"175904183" "99266474"
"175904183" "115634884"
"175904183" "139853612"
"175904183" "154340735"
"175904183" "154347695"
"175904183" "169868585"
"175904183" "184700941"
"175904183" "186586982"
"175904183" "273901668"
"178167499" "75804326"
"178542787" "65639530"
"178542787" "151549797"
"182761644" "7581072"
"182761644" "35748071"
"182761644" "42295307"
"182761644" "46401447"
"182761644" "75804326"
"182761644" "77004381"
"182761644" "87536824"
"182761644" "96928977"
"182761644" "99266474"
"182761644" "105120918"
"182761644" "141192710"
"182761644" "141523481"
"182761644" "152069444"
"182761644" "154340735"
"182761644" "154347695"
"182761644" "159313028"
"182761644" "166385800"
"182761644" "172352058"
"182761644" "184700941"
"182761644" "233401493"
"182761644" "273901668"
"182761644" "316392350"
"184700941" "7581072"
"184700941" "35748071"
"184700941" "42295307"
"184700941" "46401447"
"184700941" "77004381"
"184700941" "87536824"
"184700941" "95697896"
"184700941" "99266474"
"184700941" "105120918"
"184700941" "138143419"
"184700941" "139853612"
"184700941" "141192710"
"184700941" "141523481"
"184700941" "147361787"
"184700941" "154340735"
"184700941" "154347695"
"184700941" "159313028"
"184700941" "166385800"
"184700941" "169868585"
"184700941" "172352058"
"184700941" "175904183"
"184700941" "182761644"
"184700941" "185763665"
"184700941" "189780444"
"184700941" "191659649"
"184700941" "220584097"
"184700941" "233401493"
"184700941" "273901668"
"185763665" "7581072"
"185763665" "35748071"
"185763665" "46401447"
"185763665" "77004381"
"185763665" "87536824"
"185763665" "105120918"
"185763665" "138143419"
"185763665" "139853612"
"185763665" "148862861"
"185763665" "154340735"
"185763665" "154347695"
"185763665" "159313028"
"185763665" "162868822"
"185763665" "165209287"
"185763665" "166385800"
"185763665" "172352058"
"185763665" "174319214"
"185763665" "184700941"
"185763665" "189780444"
"185763665" "191120503"
"185763665" "233401493"
"186586982" "7581072"
"186586982" "35748071"
"186586982" "95697896"
"186586982" "115634884"
"186586982" "139853612"
"186586982" "141192710"
"186586982" "169868585"
"186586982" "173176273"
"186586982" "175904183"
"189780444" "7581072"
"189780444" "35748071"
"189780444" "46401447"
"189780444" "77004381"
"189780444" "87536824"
"189780444" "99266474"
"189780444" "138143419"
"189780444" "141192710"
"189780444" "141523481"
"189780444" "152069444"
"189780444" "154340735"
"189780444" "154347695"
"189780444" "159313028"
"189780444" "165209287"
"189780444" "166385800"
"189780444" "172352058"
"189780444" "184700941"
"189780444" "185763665"
"189780444" "191120503"
"189780444" "191659649"
"189780444" "220584097"
"189780444" "233401493"
"189780444" "233721226"
"189780444" "273901668"
"190509198" "3259188"
"190509198" "38251199"
"190509198" "75804326"
"190509198" "94396788"
"191120503" "7581072"
"191120503" "46401447"
"191120503" "77004381"
"191120503" "141523481"
"191120503" "148862861"
"191120503" "154347695"
"191120503" "162868822"
"191120503" "185763665"
"191120503" "189780444"
"191120503" "220584097"
"191659649" "7581072"
"191659649" "42295307"
"191659649" "75804326"
"191659649" "77004381"
"191659649" "95697896"
"191659649" "99266474"
"191659649" "109484157"
"191659649" "139853612"
"191659649" "148862861"
"191659649" "163760287"
"191659649" "184700941"
"191659649" "189780444"
"191659649" "316392350"
"192074234" "237175990"
"195627056" "147976867"
"195627056" "159304405"
"195627056" "236176496"
"196851533" "151549797"
"204970747" "85224931"
"205285892" "7581072"
"205285892" "159304405"
"208486824" "1993236"
"208486824" "4599376"
"208486824" "4730954"
"208486824" "7151356"
"208486824" "7918037"
"208486824" "13800571"
"208486824" "16961305"
"208486824" "17885170"
"208486824" "17948837"
"208486824" "18434088"
"208486824" "18740433"
"208486824" "23341310"
"208486824" "32851244"
"208486824" "36901690"
"208486824" "43616734"
"208486824" "53318278"
"208486824" "85585109"
"208486824" "150472292"
"208486824" "220876557"
"220497740" "75804326"
"220497740" "94396788"
"220584097" "35748071"
"220584097" "46401447"
"220584097" "87536824"
"220584097" "99266474"
"220584097" "109484157"
"220584097" "138143419"
"220584097" "141192710"
"220584097" "141523481"
"220584097" "154340735"
"220584097" "154347695"
"220584097" "166385800"
"220584097" "169868585"
"220584097" "172352058"
"220584097" "184700941"
"220584097" "189780444"
"220584097" "191120503"
"220584097" "273901668"
"220876557" "251463"
"220876557" "1993236"
"220876557" "4599376"
"220876557" "4730954"
"220876557" "7151356"
"220876557" "7918037"
"220876557" "13800571"
"220876557" "16390519"
"220876557" "16961305"
"220876557" "17885170"
"220876557" "17948837"
"220876557" "18434088"
"220876557" "18740433"
"220876557" "23341310"
"220876557" "31658972"
"220876557" "35696702"
"220876557" "36901690"
"220876557" "42309065"
"220876557" "43616734"
"220876557" "53318278"
"220876557" "61174498"
"220876557" "85585109"
"220876557" "136724390"
"220876557" "208486824"
"233401493" "7581072"
"233401493" "35748071"
"233401493" "42295307"
"233401493" "46401447"
"233401493" "77004381"
"233401493" "87536824"
"233401493" "99266474"
"233401493" "138143419"
"233401493" "152069444"
"233401493" "154340735"
"233401493" "154347695"
"233401493" "159313028"
"233401493" "166385800"
"233401493" "172352058"
"233401493" "182761644"
"233401493" "184700941"
"233401493" "185763665"
"233401493" "189780444"
"233401493" "233721226"
"233721226" "7581072"
"233721226" "35748071"
"233721226" "46401447"
"233721226" "77004381"
"233721226" "87536824"
"233721226" "138143419"
"233721226" "154340735"
"233721226" "154347695"
"233721226" "159313028"
"233721226" "166385800"
"233721226" "172352058"
"233721226" "189780444"
"233721226" "233401493"
"233721226" "273901668"
"236176496" "65639530"
"236176496" "147976867"
"236176496" "148862861"
"236176496" "154347695"
"236176496" "159304405"
"236176496" "165209287"
"236176496" "195627056"
"237175990" "192074234"
"252815506" "151549797"
"273901668" "7581072"
"273901668" "35748071"
"273901668" "46401447"
"273901668" "77004381"
"273901668" "87536824"
"273901668" "99266474"
"273901668" "138143419"
"273901668" "139853612"
"273901668" "141192710"
"273901668" "141523481"
"273901668" "154340735"
"273901668" "159313028"
"273901668" "166385800"
"273901668" "172352058"
"273901668" "175904183"
"273901668" "182761644"
"273901668" "184700941"
"273901668" "189780444"
"273901668" "220584097"
"273901668" "233721226"
"275641901" "6934496"
"275641901" "45450573"
"275641901" "50618308"
"316392350" "42295307"
"316392350" "99266474"
"316392350" "109484157"
"316392350" "141523481"
"316392350" "182761644"
"316392350" "191659649"
"317946040" "20243370"
