"id","first_name","last_name","sex","bdate"
154970,"Юрий","Орехов",2,"20.1.1984"
191607,"Вика","Филянина",1,NA
234418,"Василина","Константинова",1,"4.12.1984"
293701,"Олег","Закиров",2,NA
329809,"Ульяна","Пряничникова",1,"6.2.1987"
456266,"Люда","Григорьева",1,"15.2"
474018,"Вера","Слизень",1,"5.10.1981"
1574016,"Стас","Кучкин",2,"9.3.1991"
1677920,"Екатерина","Жигун",1,"22.2"
1838897,"Олег","Карпов",2,"17.8.1991"
1873758,"Саня","Александров",2,"19.6"
1918486,"Наталия","Матвеева",1,"22.3.1991"
1993236,"Филипп","Шер",2,"7.10"
2083639,"Юрий","Слизень",2,"20.11"
2348940,"Антон","Догадин",2,"31.1"
2556093,"Оксана","Гарасимів",1,"28.5.1989"
2935274,"Настя","Кавалерова",1,"8.10.1996"
3289427,"Елена","Тарасова",1,"28.8.1988"
3736350,"Мария","Партолога",1,"3.9"
3800490,"Даниил","Паккарь",2,"26.3"
3979421,"Алёна","Марксова",1,"19.2"
4469965,"Евгений","Артамонов",2,"17.11.1996"
4473958,"Любовь","Посохина",1,"3.3.1994"
4669617,"Катя","Бойко",1,"7.8.1985"
4730954,"Шамиль","Трояновский",2,"31.10.1993"
5161875,"Ксения","Рогова",1,NA
5338482,"Настя","Самойленко",1,"18.8"
6858731,"Аня","Сгибнева",1,"20.6"
7151356,"Юлия","Цыганова",1,"26.10.1996"
7333264,"Оля","Дьякова",1,"5.11"
7847943,"Катюша","Станкевич",1,"15.10.1996"
7918037,"Аня","Квон",1,"27.6"
8459067,"Елизавета","Трунова",1,"20.6"
8479597,"Анна","Бережняк",1,"12.9"
8554612,"Марусенька","Ганапольская",1,"8.10.1995"
8556596,"Евгения","Евсеева",1,"9.9"
8889954,"Анастасия","Дюльдина",1,"21.3.1986"
8909256,"Машуля","Гусева",1,"22.9.1996"
10077463,"Анна","Чурбанова",1,"7.11"
10152777,"Настасья","Юрская",1,"27.7.1994"
10316612,"Кирилл","Полищук",2,"25.5"
10598096,"Альбина","Филиппович",1,NA
10961019,"Сергей","Дячинский",2,"29.8.1996"
11521708,"Юлия","Герасимова",1,"28.2"
11745838,"Илья","Калягин",2,NA
12251950,"Елена","Спивак",1,"1.6.1995"
13415037,"Женя","Васкевич",2,"21.8"
14278261,"Елена","Печенкова",1,"23.10.1979"
14423173,"Алиса","Казакова",1,"8.6"
16390519,"Булат","Салихов",2,"7.10.1995"
16610701,"Михаил","Андриевских",2,NA
16858168,"Анастасия","Шишикина",1,"11.9.1993"
16961305,"Егор","Невежин",2,"14.8.1996"
17337965,"Катя","Цыганова",1,"6.7.1994"
17669411,"Михаил","Колмыков",2,"13.11"
17841210,"Оля","Фищук",1,"20.4"
17885170,"Никита","Груздков",2,"5.9"
17948837,"Кирилл","Чернаков",2,"10.7.1996"
18434088,"Роман","Малюшкин",2,"23.6.1994"
18740433,"Юра","Сорокин",2,NA
19541915,"Анастасия","Устич",1,"13.8"
19703045,"Серёжка","Сафонов",2,"29.5.1991"
20046141,"Артём","Ручко",2,"20.6.1991"
21853212,"Александра","Кулова",1,"10.12"
21890872,"Иван","Лимар",2,NA
23870856,"Prosto","Metya",2,"11.7.1996"
24019791,"Семен","Зельман",2,"28.5.1996"
24387896,"Диана","Новикова",1,"27.9"
27631775,"Ксюша","Платонова",1,"8.3"
28057217,"Сашка","Вербицкая",1,"3.5.1996"
29416688,"Александра","Метелкина",1,"4.4.1986"
29667571,"Мария","Долгирева",1,"17.3"
30805721,"Анна","Овчинникова",1,"15.1"
31658972,"Кирилл","Кузьмин",2,"5.7.1995"
32000941,"Дмитрий","Васильев",2,"27.5.1996"
32042256,"Елизавета","Нечаева",1,"29.1.1996"
32851244,"Андрей","Малюков",2,"9.7"
33723925,"Анатолий","Воднев",2,"17.4.1996"
36847055,"Юлия","Кулемина",1,"17.9.1992"
36901690,"Олеся","Бигун",1,"17.3.1996"
38214179,"Элиза","Гумерова",1,"14.5.1997"
38546214,"Андрей","Гризли",2,"26.8"
39862526,"Мария","Завальная",1,"4.3.1998"
40429969,"Сергей","Сербин",2,"20.9"
40912771,"Лизавета","Якимова",1,"4.5"
41761695,"Дмитрий","Васин",2,"1.10"
42309065,"Леся","Карачун",1,"25.11"
43616734,"Анна","Судакова",1,"19.10.1996"
43878128,"Сергей","Давыдов",2,NA
49602207,"Константин","One",2,"16.5.1977"
51964969,"Алексей","Журавлёв",2,"17.6.1997"
53318278,"Мария","Гарец",1,"27.7.1996"
53547933,"Авдотья","Шинко",1,"14.3.1996"
53563662,"Глеб","Харламов",2,"29.7.1996"
58764545,"Юля","Мурахтанова",1,"12.12.1996"
61174498,"Платон","Похваленский",2,NA
63607608,"Светлана","Драгунова",1,NA
65245631,"Алла","Биканова",1,"11.7"
66642208,"Катерина","Володина",1,"25.12"
69276386,"Галина","Корнева",1,"6.11"
69598681,"Рита","Черниговская",1,"23.6.1996"
69764377,"Елена","Рогозина",1,"2.10.1996"
77232222,"Кирилл","Иванов",2,"6.3.1996"
79422633,"Светлана","Андреевна",1,"14.8.1996"
80684677,"Александра","Кулакова",1,"4.1.1995"
81572483,"Юля","Москальчук",1,"28.5.1996"
85585109,"Ju","Kostinikova",1,"18.2.1994"
85682752,"Александр","Остапенко",2,"19.11"
86791259,"Мария","Боримская",1,"9.9"
92515720,"Inna","Freeman",1,"11.1"
97162572,"Валерия","Гаврилова",1,"18.11.1994"
100949237,"Лея","Иванова",1,"5.4.1996"
101640478,"Серега","Никищенко",2,"23.6"
106242003,"Мария","Коркина",1,"31.7"
107967250,"Алёна","Боровик",1,"16.5"
109604400,"Світлана","Діденко",1,"20.3"
116411513,"Анастасия","Степанова",1,"25.3.1997"
119994029,"Саша","Шнейдерман",1,"20.6"
120278594,"Вероника","Ткаченко",1,"6.11"
121486500,"Александра","Ким",1,"30.5"
122690798,"Юлия","Лигай",1,NA
122886791,"Мария","Фокина",1,"17.2.1990"
125974120,"Larissa","Loboda",1,"16.6"
127930346,"Анастасия","Жолтомирская",1,"23.1"
132321691,"Елизавета","Лысых",1,"12.6"
132474268,"Анна","Литвиненко",1,"13.8"
132919335,"Ольга","Милютина",1,"2.3.1998"
134347125,"Маша","Вашурина",1,"9.1"
134937855,"Вячеслав","Ботвинник",2,"10.10"
135904226,"Маргарита","Овчинникова",1,"23.8.1997"
136724390,"Elena","Harchevnikova",1,"27.10"
143249135,"Ирина","Грицаенко",1,"3.9.1994"
145873637,"Анастасия","Садыкова",1,"15.5.1917"
150472292,"Антон","Немцев",2,NA
153113266,"Мария","Фокина",1,"10.8"
153552591,"Александра","Михайлова",1,"31.3.1978"
153758390,"Карина","Артюшкина",1,"8.10.2000"
157404850,"Ринат","Бичурин",2,NA
158705721,"Димка","Варганов",2,NA
159023880,"Наиля","Бичурина",1,NA
160137428,"Николай","Федотов",2,"1.12"
164585641,"Тёма","Яблуновский",2,NA
164705428,"Никита","Титоров",2,"15.2"
168705687,"Дмитрий","Чернушевич",2,"8.8.1992"
171125155,"Анжелика","Готье",1,"30.12"
172203046,"Юля","Журёнкова",1,"5.3.1997"
175412731,"Марго","Титаренко",1,NA
176045481,"Алевтина","Хазова",1,"27.5"
177698299,"Анастасия","Асматова",1,"16.8"
177993169,"Самира","Ихсанова",1,"20.1.1993"
178977440,"Далида","Исмагулова",1,"15.4"
182111423,"Виктория","Маслова",1,"5.8.1990"
184309507,"Марина","Буркова",1,"14.8"
184838964,"Марина","Савченко",1,"19.4"
190570590,"Kantodea","Horror",2,"20.11"
190892268,"Yuliya","Dmitrievna",1,"10.12.1986"
191553256,"Alina","Lapaeva",1,"21.10.1997"
208486824,"Елена","Юмагулова",1,"10.12.1996"
217007795,"Анастасия","Горячева",1,"9.1"
218200258,"Яна","Омельяненко",1,"27.12"
220876557,"Лия","Эл",1,"7.8"
226958516,"Игорь","Орёл",2,"5.5"
228692223,"Юлия","Дмитриева",1,"29.5.1971"
230978377,"Анастасия","Фишер",1,"20.3"
232800868,"Антонина","Шаповалова",1,"13.1.1996"
243378444,"Дмитрий","Сафонов",2,"27.7.1998"
249811500,"Kyler","Moss",2,"10.10"
268870404,"Katrin","Katrin",1,"1.1.1984"
276233856,"Плюс","Минус",1,"25.2"
283286433,"Alex","Maragondi",2,NA
292010083,"Виктор","Прокопьев",2,"8.4.1991"
296887056,"Elena","Yumagulova",1,NA
302110899,"Le-Sya","Raikan",1,"1.7"
304992400,"Лианна","Новая",1,NA
311875487,"Amélie","Poulain",1,NA
312478760,"София","Рейн",1,"7.4"
315491662,"Diana","Simpson",1,NA
326604511,"Марія","Набокова",1,"3.4.1997"
327228127,"Дженни","Уизли",1,"8.10.1988"
"V1" "V2"
"154970" "293701"
"154970" "92515720"
"191607" "1574016"
"191607" "1677920"
"191607" "1838897"
"191607" "1873758"
"191607" "1918486"
"191607" "2348940"
"191607" "19703045"
"191607" "20046141"
"191607" "43878128"
"191607" "106242003"
"234418" "293701"
"234418" "3736350"
"234418" "92515720"
"293701" "154970"
"293701" "234418"
"293701" "3736350"
"293701" "92515720"
"329809" "27631775"
"456266" "474018"
"456266" "2083639"
"474018" "456266"
"1574016" "191607"
"1574016" "1677920"
"1574016" "1873758"
"1574016" "1918486"
"1574016" "2348940"
"1574016" "19703045"
"1574016" "20046141"
"1574016" "43878128"
"1574016" "106242003"
"1677920" "191607"
"1677920" "1574016"
"1677920" "1873758"
"1677920" "1918486"
"1677920" "2348940"
"1677920" "19703045"
"1677920" "20046141"
"1677920" "43878128"
"1677920" "106242003"
"1838897" "191607"
"1838897" "1873758"
"1838897" "19703045"
"1838897" "20046141"
"1838897" "28057217"
"1873758" "191607"
"1873758" "1574016"
"1873758" "1677920"
"1873758" "1838897"
"1873758" "1918486"
"1873758" "2348940"
"1873758" "19703045"
"1873758" "20046141"
"1873758" "43878128"
"1873758" "106242003"
"1918486" "191607"
"1918486" "1574016"
"1918486" "1677920"
"1918486" "1873758"
"1918486" "2348940"
"1918486" "19703045"
"1918486" "43878128"
"1918486" "106242003"
"1993236" "7151356"
"1993236" "7918037"
"1993236" "12251950"
"1993236" "16390519"
"1993236" "16961305"
"1993236" "17885170"
"1993236" "17948837"
"1993236" "18434088"
"1993236" "18740433"
"1993236" "24387896"
"1993236" "31658972"
"1993236" "32851244"
"1993236" "36901690"
"1993236" "42309065"
"1993236" "43616734"
"1993236" "53318278"
"1993236" "61174498"
"1993236" "85585109"
"1993236" "122690798"
"1993236" "150472292"
"1993236" "208486824"
"1993236" "220876557"
"2083639" "456266"
"2348940" "191607"
"2348940" "1574016"
"2348940" "1677920"
"2348940" "1873758"
"2348940" "1918486"
"2348940" "19703045"
"2348940" "20046141"
"2348940" "43878128"
"2348940" "53547933"
"2348940" "106242003"
"2556093" "27631775"
"2556093" "311875487"
"2935274" "10316612"
"2935274" "13415037"
"2935274" "38546214"
"2935274" "40429969"
"3289427" "122886791"
"3736350" "234418"
"3736350" "293701"
"3736350" "92515720"
"3800490" "5161875"
"3800490" "8459067"
"3800490" "10077463"
"3800490" "10316612"
"3800490" "10598096"
"3800490" "13415037"
"3800490" "16610701"
"3800490" "21853212"
"3800490" "32000941"
"3800490" "33723925"
"3800490" "38214179"
"3800490" "38546214"
"3800490" "40429969"
"3800490" "41761695"
"3800490" "53563662"
"3800490" "69764377"
"3800490" "77232222"
"3800490" "85682752"
"3800490" "164705428"
"3800490" "226958516"
"3979421" "7151356"
"4473958" "5338482"
"4473958" "24387896"
"4473958" "85585109"
"4473958" "134347125"
"4473958" "208486824"
"4473958" "232800868"
"4669617" "116411513"
"4730954" "5338482"
"4730954" "16390519"
"4730954" "16961305"
"4730954" "17885170"
"4730954" "17948837"
"4730954" "18434088"
"4730954" "23870856"
"4730954" "24387896"
"4730954" "31658972"
"4730954" "36901690"
"4730954" "42309065"
"4730954" "43616734"
"4730954" "53318278"
"4730954" "85585109"
"4730954" "122690798"
"4730954" "134347125"
"4730954" "136724390"
"4730954" "158705721"
"4730954" "208486824"
"4730954" "220876557"
"4730954" "232800868"
"5161875" "3800490"
"5161875" "8459067"
"5161875" "10077463"
"5161875" "10316612"
"5161875" "10598096"
"5161875" "13415037"
"5161875" "16610701"
"5161875" "30805721"
"5161875" "33723925"
"5161875" "38546214"
"5161875" "40429969"
"5161875" "41761695"
"5161875" "53563662"
"5161875" "85682752"
"5161875" "164705428"
"5161875" "226958516"
"5338482" "4473958"
"5338482" "4730954"
"5338482" "16390519"
"5338482" "18434088"
"5338482" "31658972"
"5338482" "43616734"
"5338482" "85585109"
"5338482" "134347125"
"5338482" "158705721"
"5338482" "220876557"
"5338482" "232800868"
"6858731" "7151356"
"6858731" "28057217"
"7151356" "1993236"
"7151356" "3979421"
"7151356" "6858731"
"7151356" "7918037"
"7151356" "10152777"
"7151356" "12251950"
"7151356" "14278261"
"7151356" "16961305"
"7151356" "17337965"
"7151356" "17885170"
"7151356" "18740433"
"7151356" "20046141"
"7151356" "27631775"
"7151356" "36847055"
"7151356" "36901690"
"7151356" "43616734"
"7151356" "53318278"
"7151356" "66642208"
"7151356" "85585109"
"7151356" "109604400"
"7151356" "122690798"
"7151356" "143249135"
"7151356" "145873637"
"7151356" "150472292"
"7151356" "153113266"
"7151356" "184838964"
"7151356" "208486824"
"7151356" "220876557"
"7151356" "304992400"
"7151356" "311875487"
"7151356" "327228127"
"7333264" "21853212"
"7847943" "24019791"
"7847943" "53547933"
"7847943" "100949237"
"7847943" "134937855"
"7918037" "1993236"
"7918037" "7151356"
"7918037" "12251950"
"7918037" "16961305"
"7918037" "17885170"
"7918037" "17948837"
"7918037" "18434088"
"7918037" "18740433"
"7918037" "31658972"
"7918037" "32851244"
"7918037" "36901690"
"7918037" "43616734"
"7918037" "53318278"
"7918037" "85585109"
"7918037" "122690798"
"7918037" "150472292"
"7918037" "208486824"
"7918037" "220876557"
"8459067" "3800490"
"8459067" "5161875"
"8459067" "10077463"
"8459067" "10316612"
"8459067" "10598096"
"8459067" "13415037"
"8459067" "16610701"
"8459067" "21853212"
"8459067" "32000941"
"8459067" "33723925"
"8459067" "38546214"
"8459067" "40429969"
"8459067" "41761695"
"8459067" "53563662"
"8459067" "77232222"
"8459067" "85682752"
"8459067" "164705428"
"8459067" "226958516"
"8479597" "17841210"
"8479597" "32042256"
"8479597" "40912771"
"8554612" "10961019"
"8554612" "14423173"
"8554612" "29667571"
"8554612" "53547933"
"8556596" "16858168"
"8556596" "122886791"
"8556596" "132919335"
"8556596" "217007795"
"8889954" "176045481"
"8889954" "302110899"
"8909256" "21853212"
"10077463" "3800490"
"10077463" "5161875"
"10077463" "8459067"
"10077463" "10316612"
"10077463" "10598096"
"10077463" "13415037"
"10077463" "16610701"
"10077463" "21853212"
"10077463" "30805721"
"10077463" "32000941"
"10077463" "33723925"
"10077463" "38214179"
"10077463" "38546214"
"10077463" "40429969"
"10077463" "41761695"
"10077463" "53563662"
"10077463" "77232222"
"10077463" "79422633"
"10077463" "85682752"
"10077463" "164705428"
"10077463" "226958516"
"10152777" "7151356"
"10152777" "11521708"
"10152777" "122886791"
"10152777" "143249135"
"10152777" "145873637"
"10152777" "228692223"
"10152777" "326604511"
"10152777" "327228127"
"10316612" "2935274"
"10316612" "3800490"
"10316612" "5161875"
"10316612" "8459067"
"10316612" "10077463"
"10316612" "10598096"
"10316612" "13415037"
"10316612" "16610701"
"10316612" "21853212"
"10316612" "30805721"
"10316612" "32000941"
"10316612" "33723925"
"10316612" "38214179"
"10316612" "38546214"
"10316612" "40429969"
"10316612" "41761695"
"10316612" "53563662"
"10316612" "77232222"
"10316612" "79422633"
"10316612" "85682752"
"10316612" "106242003"
"10316612" "153113266"
"10316612" "164705428"
"10316612" "226958516"
"10598096" "3800490"
"10598096" "5161875"
"10598096" "8459067"
"10598096" "10077463"
"10598096" "10316612"
"10598096" "13415037"
"10598096" "16610701"
"10598096" "21853212"
"10598096" "32000941"
"10598096" "33723925"
"10598096" "38214179"
"10598096" "38546214"
"10598096" "40429969"
"10598096" "41761695"
"10598096" "77232222"
"10598096" "79422633"
"10598096" "85682752"
"10598096" "164705428"
"10961019" "8554612"
"10961019" "11745838"
"10961019" "24019791"
"10961019" "100949237"
"10961019" "134937855"
"11521708" "10152777"
"11521708" "27631775"
"11521708" "66642208"
"11521708" "122886791"
"11745838" "10961019"
"11745838" "17669411"
"11745838" "24019791"
"11745838" "53547933"
"11745838" "134937855"
"12251950" "1993236"
"12251950" "7151356"
"12251950" "7918037"
"12251950" "16961305"
"12251950" "17885170"
"12251950" "18434088"
"12251950" "36901690"
"12251950" "43616734"
"12251950" "53318278"
"12251950" "122690798"
"13415037" "2935274"
"13415037" "3800490"
"13415037" "5161875"
"13415037" "8459067"
"13415037" "10077463"
"13415037" "10316612"
"13415037" "10598096"
"13415037" "16610701"
"13415037" "21853212"
"13415037" "32000941"
"13415037" "33723925"
"13415037" "38214179"
"13415037" "38546214"
"13415037" "40429969"
"13415037" "41761695"
"13415037" "53563662"
"13415037" "77232222"
"13415037" "79422633"
"13415037" "85682752"
"13415037" "157404850"
"13415037" "164705428"
"13415037" "226958516"
"14278261" "7151356"
"14278261" "116411513"
"14278261" "217007795"
"14423173" "8554612"
"14423173" "86791259"
"16390519" "1993236"
"16390519" "4730954"
"16390519" "5338482"
"16390519" "16961305"
"16390519" "17885170"
"16390519" "17948837"
"16390519" "18434088"
"16390519" "18740433"
"16390519" "24387896"
"16390519" "31658972"
"16390519" "32851244"
"16390519" "36901690"
"16390519" "42309065"
"16390519" "43616734"
"16390519" "53318278"
"16390519" "61174498"
"16390519" "85585109"
"16390519" "122690798"
"16390519" "134347125"
"16390519" "136724390"
"16390519" "220876557"
"16390519" "232800868"
"16610701" "3800490"
"16610701" "5161875"
"16610701" "8459067"
"16610701" "10077463"
"16610701" "10316612"
"16610701" "10598096"
"16610701" "13415037"
"16610701" "21853212"
"16610701" "32000941"
"16610701" "33723925"
"16610701" "38214179"
"16610701" "38546214"
"16610701" "40429969"
"16610701" "41761695"
"16610701" "53563662"
"16610701" "85682752"
"16610701" "164705428"
"16610701" "226958516"
"16858168" "8556596"
"16858168" "327228127"
"16961305" "1993236"
"16961305" "4730954"
"16961305" "7151356"
"16961305" "7918037"
"16961305" "12251950"
"16961305" "16390519"
"16961305" "17885170"
"16961305" "17948837"
"16961305" "18434088"
"16961305" "18740433"
"16961305" "31658972"
"16961305" "32851244"
"16961305" "36901690"
"16961305" "43616734"
"16961305" "53318278"
"16961305" "85585109"
"16961305" "122690798"
"16961305" "150472292"
"16961305" "208486824"
"16961305" "220876557"
"17337965" "7151356"
"17337965" "28057217"
"17669411" "11745838"
"17669411" "24019791"
"17669411" "134937855"
"17841210" "8479597"
"17841210" "40912771"
"17885170" "1993236"
"17885170" "4730954"
"17885170" "7151356"
"17885170" "7918037"
"17885170" "12251950"
"17885170" "16390519"
"17885170" "16961305"
"17885170" "17948837"
"17885170" "18434088"
"17885170" "18740433"
"17885170" "31658972"
"17885170" "32851244"
"17885170" "36901690"
"17885170" "42309065"
"17885170" "43616734"
"17885170" "53318278"
"17885170" "58764545"
"17885170" "61174498"
"17885170" "85585109"
"17885170" "122690798"
"17885170" "134347125"
"17885170" "136724390"
"17885170" "150472292"
"17885170" "208486824"
"17885170" "220876557"
"17948837" "1993236"
"17948837" "4730954"
"17948837" "7918037"
"17948837" "16390519"
"17948837" "16961305"
"17948837" "17885170"
"17948837" "18434088"
"17948837" "18740433"
"17948837" "32851244"
"17948837" "36901690"
"17948837" "43616734"
"17948837" "53318278"
"17948837" "61174498"
"17948837" "85585109"
"17948837" "122690798"
"17948837" "150472292"
"17948837" "208486824"
"17948837" "220876557"
"18434088" "1993236"
"18434088" "4730954"
"18434088" "5338482"
"18434088" "7918037"
"18434088" "12251950"
"18434088" "16390519"
"18434088" "16961305"
"18434088" "17885170"
"18434088" "17948837"
"18434088" "18740433"
"18434088" "31658972"
"18434088" "32851244"
"18434088" "36901690"
"18434088" "42309065"
"18434088" "43616734"
"18434088" "53318278"
"18434088" "85585109"
"18434088" "122690798"
"18434088" "134347125"
"18434088" "136724390"
"18434088" "158705721"
"18434088" "208486824"
"18434088" "220876557"
"18434088" "232800868"
"18740433" "1993236"
"18740433" "7151356"
"18740433" "7918037"
"18740433" "16390519"
"18740433" "16961305"
"18740433" "17885170"
"18740433" "17948837"
"18740433" "18434088"
"18740433" "31658972"
"18740433" "32851244"
"18740433" "36901690"
"18740433" "42309065"
"18740433" "43616734"
"18740433" "53318278"
"18740433" "61174498"
"18740433" "85585109"
"18740433" "122690798"
"18740433" "136724390"
"18740433" "150472292"
"18740433" "208486824"
"18740433" "220876557"
"19541915" "66642208"
"19541915" "171125155"
"19703045" "191607"
"19703045" "1574016"
"19703045" "1677920"
"19703045" "1838897"
"19703045" "1873758"
"19703045" "1918486"
"19703045" "2348940"
"19703045" "20046141"
"19703045" "28057217"
"19703045" "43878128"
"19703045" "53547933"
"19703045" "106242003"
"19703045" "243378444"
"20046141" "191607"
"20046141" "1574016"
"20046141" "1677920"
"20046141" "1838897"
"20046141" "1873758"
"20046141" "2348940"
"20046141" "7151356"
"20046141" "19703045"
"20046141" "28057217"
"21853212" "3800490"
"21853212" "7333264"
"21853212" "8459067"
"21853212" "8909256"
"21853212" "10077463"
"21853212" "10316612"
"21853212" "10598096"
"21853212" "13415037"
"21853212" "16610701"
"21853212" "32000941"
"21853212" "33723925"
"21853212" "38214179"
"21853212" "38546214"
"21853212" "40429969"
"21853212" "41761695"
"21853212" "53563662"
"21853212" "77232222"
"21853212" "85682752"
"21853212" "153113266"
"21853212" "159023880"
"21853212" "164705428"
"21853212" "226958516"
"21890872" "79422633"
"21890872" "157404850"
"23870856" "4730954"
"23870856" "42309065"
"23870856" "43616734"
"23870856" "136724390"
"23870856" "184309507"
"23870856" "208486824"
"24019791" "7847943"
"24019791" "10961019"
"24019791" "11745838"
"24019791" "17669411"
"24019791" "29667571"
"24019791" "53547933"
"24019791" "100949237"
"24019791" "134937855"
"24387896" "1993236"
"24387896" "4473958"
"24387896" "4730954"
"24387896" "16390519"
"24387896" "85585109"
"24387896" "136724390"
"24387896" "208486824"
"24387896" "220876557"
"24387896" "232800868"
"27631775" "329809"
"27631775" "2556093"
"27631775" "7151356"
"27631775" "11521708"
"27631775" "36847055"
"27631775" "39862526"
"27631775" "49602207"
"27631775" "66642208"
"27631775" "143249135"
"27631775" "182111423"
"27631775" "190570590"
"27631775" "217007795"
"27631775" "228692223"
"27631775" "276233856"
"27631775" "304992400"
"27631775" "326604511"
"27631775" "327228127"
"28057217" "1838897"
"28057217" "6858731"
"28057217" "17337965"
"28057217" "19703045"
"28057217" "20046141"
"28057217" "153113266"
"29667571" "8554612"
"29667571" "24019791"
"29667571" "134937855"
"30805721" "5161875"
"30805721" "10077463"
"30805721" "10316612"
"31658972" "1993236"
"31658972" "4730954"
"31658972" "5338482"
"31658972" "7918037"
"31658972" "16390519"
"31658972" "16961305"
"31658972" "17885170"
"31658972" "18434088"
"31658972" "18740433"
"31658972" "32851244"
"31658972" "42309065"
"31658972" "43616734"
"31658972" "53318278"
"31658972" "61174498"
"31658972" "85585109"
"31658972" "122690798"
"31658972" "134347125"
"31658972" "136724390"
"31658972" "220876557"
"31658972" "232800868"
"32000941" "3800490"
"32000941" "8459067"
"32000941" "10077463"
"32000941" "10316612"
"32000941" "10598096"
"32000941" "13415037"
"32000941" "16610701"
"32000941" "21853212"
"32000941" "33723925"
"32000941" "38214179"
"32000941" "38546214"
"32000941" "40429969"
"32000941" "41761695"
"32000941" "53563662"
"32000941" "77232222"
"32000941" "85682752"
"32000941" "164705428"
"32042256" "8479597"
"32042256" "40912771"
"32042256" "175412731"
"32851244" "1993236"
"32851244" "7918037"
"32851244" "16390519"
"32851244" "16961305"
"32851244" "17885170"
"32851244" "17948837"
"32851244" "18434088"
"32851244" "18740433"
"32851244" "31658972"
"32851244" "36901690"
"32851244" "42309065"
"32851244" "43616734"
"32851244" "53318278"
"32851244" "61174498"
"32851244" "85585109"
"32851244" "122690798"
"32851244" "150472292"
"32851244" "208486824"
"32851244" "232800868"
"33723925" "3800490"
"33723925" "5161875"
"33723925" "8459067"
"33723925" "10077463"
"33723925" "10316612"
"33723925" "10598096"
"33723925" "13415037"
"33723925" "16610701"
"33723925" "21853212"
"33723925" "32000941"
"33723925" "38214179"
"33723925" "38546214"
"33723925" "40429969"
"33723925" "41761695"
"33723925" "53563662"
"33723925" "77232222"
"33723925" "79422633"
"33723925" "85682752"
"33723925" "164705428"
"33723925" "226958516"
"36847055" "7151356"
"36847055" "27631775"
"36847055" "217007795"
"36901690" "1993236"
"36901690" "4730954"
"36901690" "7151356"
"36901690" "7918037"
"36901690" "12251950"
"36901690" "16390519"
"36901690" "16961305"
"36901690" "17885170"
"36901690" "17948837"
"36901690" "18434088"
"36901690" "18740433"
"36901690" "32851244"
"36901690" "43616734"
"36901690" "53318278"
"36901690" "85585109"
"36901690" "122690798"
"36901690" "150472292"
"36901690" "208486824"
"36901690" "220876557"
"38214179" "3800490"
"38214179" "10077463"
"38214179" "10316612"
"38214179" "10598096"
"38214179" "13415037"
"38214179" "16610701"
"38214179" "21853212"
"38214179" "32000941"
"38214179" "33723925"
"38214179" "38546214"
"38214179" "40429969"
"38214179" "41761695"
"38214179" "53563662"
"38214179" "77232222"
"38214179" "85682752"
"38214179" "164705428"
"38214179" "226958516"
"38546214" "2935274"
"38546214" "3800490"
"38546214" "5161875"
"38546214" "8459067"
"38546214" "10077463"
"38546214" "10316612"
"38546214" "10598096"
"38546214" "13415037"
"38546214" "16610701"
"38546214" "21853212"
"38546214" "32000941"
"38546214" "33723925"
"38546214" "38214179"
"38546214" "40429969"
"38546214" "41761695"
"38546214" "53563662"
"38546214" "85682752"
"38546214" "164705428"
"38546214" "226958516"
"39862526" "27631775"
"40429969" "2935274"
"40429969" "3800490"
"40429969" "5161875"
"40429969" "8459067"
"40429969" "10077463"
"40429969" "10316612"
"40429969" "10598096"
"40429969" "13415037"
"40429969" "16610701"
"40429969" "21853212"
"40429969" "32000941"
"40429969" "33723925"
"40429969" "38214179"
"40429969" "38546214"
"40429969" "41761695"
"40429969" "53563662"
"40429969" "77232222"
"40429969" "85682752"
"40429969" "164705428"
"40429969" "226958516"
"40912771" "8479597"
"40912771" "17841210"
"40912771" "32042256"
"40912771" "153113266"
"41761695" "3800490"
"41761695" "5161875"
"41761695" "8459067"
"41761695" "10077463"
"41761695" "10316612"
"41761695" "10598096"
"41761695" "13415037"
"41761695" "16610701"
"41761695" "21853212"
"41761695" "32000941"
"41761695" "33723925"
"41761695" "38214179"
"41761695" "38546214"
"41761695" "40429969"
"41761695" "53563662"
"41761695" "77232222"
"41761695" "85682752"
"41761695" "164705428"
"41761695" "226958516"
"42309065" "1993236"
"42309065" "4730954"
"42309065" "16390519"
"42309065" "17885170"
"42309065" "18434088"
"42309065" "18740433"
"42309065" "23870856"
"42309065" "31658972"
"42309065" "32851244"
"42309065" "43616734"
"42309065" "53318278"
"42309065" "85585109"
"42309065" "122690798"
"42309065" "134347125"
"42309065" "220876557"
"43616734" "1993236"
"43616734" "4730954"
"43616734" "5338482"
"43616734" "7151356"
"43616734" "7918037"
"43616734" "12251950"
"43616734" "16390519"
"43616734" "16961305"
"43616734" "17885170"
"43616734" "17948837"
"43616734" "18434088"
"43616734" "18740433"
"43616734" "23870856"
"43616734" "31658972"
"43616734" "32851244"
"43616734" "36901690"
"43616734" "42309065"
"43616734" "53318278"
"43616734" "61174498"
"43616734" "85585109"
"43616734" "122690798"
"43616734" "134347125"
"43616734" "136724390"
"43616734" "150472292"
"43616734" "208486824"
"43616734" "220876557"
"43878128" "191607"
"43878128" "1574016"
"43878128" "1677920"
"43878128" "1873758"
"43878128" "1918486"
"43878128" "2348940"
"43878128" "19703045"
"43878128" "106242003"
"49602207" "27631775"
"49602207" "311875487"
"51964969" "153113266"
"53318278" "1993236"
"53318278" "4730954"
"53318278" "7151356"
"53318278" "7918037"
"53318278" "12251950"
"53318278" "16390519"
"53318278" "16961305"
"53318278" "17885170"
"53318278" "17948837"
"53318278" "18434088"
"53318278" "18740433"
"53318278" "31658972"
"53318278" "32851244"
"53318278" "36901690"
"53318278" "42309065"
"53318278" "43616734"
"53318278" "85585109"
"53318278" "122690798"
"53318278" "150472292"
"53318278" "208486824"
"53318278" "220876557"
"53547933" "2348940"
"53547933" "7847943"
"53547933" "8554612"
"53547933" "11745838"
"53547933" "19703045"
"53547933" "24019791"
"53547933" "100949237"
"53563662" "3800490"
"53563662" "5161875"
"53563662" "8459067"
"53563662" "10077463"
"53563662" "10316612"
"53563662" "13415037"
"53563662" "16610701"
"53563662" "21853212"
"53563662" "32000941"
"53563662" "33723925"
"53563662" "38214179"
"53563662" "38546214"
"53563662" "40429969"
"53563662" "41761695"
"53563662" "85682752"
"53563662" "164705428"
"58764545" "17885170"
"61174498" "1993236"
"61174498" "16390519"
"61174498" "17885170"
"61174498" "17948837"
"61174498" "18740433"
"61174498" "31658972"
"61174498" "32851244"
"61174498" "43616734"
"61174498" "122690798"
"61174498" "136724390"
"61174498" "150472292"
"61174498" "220876557"
"65245631" "145873637"
"66642208" "7151356"
"66642208" "11521708"
"66642208" "19541915"
"66642208" "27631775"
"66642208" "97162572"
"66642208" "119994029"
"66642208" "184838964"
"66642208" "311875487"
"69276386" "217007795"
"69276386" "268870404"
"69598681" "69764377"
"69598681" "79422633"
"69598681" "153113266"
"69598681" "157404850"
"69598681" "159023880"
"69764377" "3800490"
"69764377" "69598681"
"69764377" "153113266"
"77232222" "3800490"
"77232222" "8459067"
"77232222" "10077463"
"77232222" "10316612"
"77232222" "10598096"
"77232222" "13415037"
"77232222" "21853212"
"77232222" "32000941"
"77232222" "33723925"
"77232222" "38214179"
"77232222" "40429969"
"77232222" "41761695"
"77232222" "164705428"
"77232222" "226958516"
"79422633" "10077463"
"79422633" "10316612"
"79422633" "10598096"
"79422633" "13415037"
"79422633" "21890872"
"79422633" "33723925"
"79422633" "69598681"
"79422633" "153113266"
"79422633" "157404850"
"79422633" "159023880"
"80684677" "122886791"
"80684677" "143249135"
"80684677" "312478760"
"81572483" "132321691"
"85585109" "1993236"
"85585109" "4473958"
"85585109" "4730954"
"85585109" "5338482"
"85585109" "7151356"
"85585109" "7918037"
"85585109" "16390519"
"85585109" "16961305"
"85585109" "17885170"
"85585109" "17948837"
"85585109" "18434088"
"85585109" "18740433"
"85585109" "24387896"
"85585109" "31658972"
"85585109" "32851244"
"85585109" "36901690"
"85585109" "42309065"
"85585109" "43616734"
"85585109" "53318278"
"85585109" "122690798"
"85585109" "134347125"
"85585109" "150472292"
"85585109" "158705721"
"85585109" "208486824"
"85585109" "220876557"
"85585109" "232800868"
"85682752" "3800490"
"85682752" "5161875"
"85682752" "8459067"
"85682752" "10077463"
"85682752" "10316612"
"85682752" "10598096"
"85682752" "13415037"
"85682752" "16610701"
"85682752" "21853212"
"85682752" "32000941"
"85682752" "33723925"
"85682752" "38214179"
"85682752" "38546214"
"85682752" "40429969"
"85682752" "41761695"
"85682752" "53563662"
"85682752" "164705428"
"85682752" "226958516"
"86791259" "14423173"
"92515720" "154970"
"92515720" "234418"
"92515720" "293701"
"92515720" "3736350"
"97162572" "66642208"
"97162572" "177698299"
"100949237" "7847943"
"100949237" "10961019"
"100949237" "24019791"
"100949237" "53547933"
"106242003" "191607"
"106242003" "1574016"
"106242003" "1677920"
"106242003" "1873758"
"106242003" "1918486"
"106242003" "2348940"
"106242003" "10316612"
"106242003" "19703045"
"106242003" "43878128"
"107967250" "217007795"
"109604400" "7151356"
"116411513" "4669617"
"116411513" "14278261"
"116411513" "228692223"
"116411513" "276233856"
"116411513" "312478760"
"116411513" "327228127"
"119994029" "66642208"
"119994029" "268870404"
"121486500" "143249135"
"121486500" "326604511"
"121486500" "327228127"
"122690798" "1993236"
"122690798" "4730954"
"122690798" "7151356"
"122690798" "7918037"
"122690798" "12251950"
"122690798" "16390519"
"122690798" "16961305"
"122690798" "17885170"
"122690798" "17948837"
"122690798" "18434088"
"122690798" "18740433"
"122690798" "31658972"
"122690798" "32851244"
"122690798" "36901690"
"122690798" "42309065"
"122690798" "43616734"
"122690798" "53318278"
"122690798" "61174498"
"122690798" "85585109"
"122690798" "136724390"
"122690798" "150472292"
"122690798" "208486824"
"122690798" "220876557"
"122886791" "3289427"
"122886791" "8556596"
"122886791" "10152777"
"122886791" "11521708"
"122886791" "80684677"
"122886791" "171125155"
"127930346" "311875487"
"132321691" "81572483"
"132321691" "177698299"
"132919335" "8556596"
"132919335" "276233856"
"132919335" "304992400"
"132919335" "327228127"
"134347125" "4473958"
"134347125" "4730954"
"134347125" "5338482"
"134347125" "16390519"
"134347125" "17885170"
"134347125" "18434088"
"134347125" "31658972"
"134347125" "42309065"
"134347125" "43616734"
"134347125" "85585109"
"134347125" "136724390"
"134347125" "158705721"
"134347125" "208486824"
"134347125" "220876557"
"134347125" "232800868"
"134937855" "7847943"
"134937855" "10961019"
"134937855" "11745838"
"134937855" "17669411"
"134937855" "24019791"
"134937855" "29667571"
"135904226" "171125155"
"135904226" "177993169"
"135904226" "178977440"
"135904226" "184838964"
"135904226" "304992400"
"136724390" "4730954"
"136724390" "16390519"
"136724390" "17885170"
"136724390" "18434088"
"136724390" "18740433"
"136724390" "23870856"
"136724390" "24387896"
"136724390" "31658972"
"136724390" "43616734"
"136724390" "61174498"
"136724390" "122690798"
"136724390" "134347125"
"136724390" "220876557"
"143249135" "7151356"
"143249135" "10152777"
"143249135" "27631775"
"143249135" "80684677"
"143249135" "121486500"
"143249135" "217007795"
"145873637" "7151356"
"145873637" "10152777"
"145873637" "65245631"
"150472292" "1993236"
"150472292" "7151356"
"150472292" "7918037"
"150472292" "16961305"
"150472292" "17885170"
"150472292" "17948837"
"150472292" "18740433"
"150472292" "32851244"
"150472292" "36901690"
"150472292" "43616734"
"150472292" "53318278"
"150472292" "61174498"
"150472292" "85585109"
"150472292" "122690798"
"150472292" "208486824"
"153113266" "7151356"
"153113266" "10316612"
"153113266" "21853212"
"153113266" "28057217"
"153113266" "40912771"
"153113266" "51964969"
"153113266" "69598681"
"153113266" "69764377"
"153113266" "79422633"
"153758390" "312478760"
"157404850" "13415037"
"157404850" "21890872"
"157404850" "69598681"
"157404850" "79422633"
"157404850" "159023880"
"158705721" "4730954"
"158705721" "5338482"
"158705721" "18434088"
"158705721" "85585109"
"158705721" "134347125"
"158705721" "232800868"
"159023880" "21853212"
"159023880" "69598681"
"159023880" "79422633"
"159023880" "157404850"
"164585641" "315491662"
"164705428" "3800490"
"164705428" "5161875"
"164705428" "8459067"
"164705428" "10077463"
"164705428" "10316612"
"164705428" "10598096"
"164705428" "13415037"
"164705428" "16610701"
"164705428" "21853212"
"164705428" "32000941"
"164705428" "33723925"
"164705428" "38214179"
"164705428" "38546214"
"164705428" "40429969"
"164705428" "41761695"
"164705428" "53563662"
"164705428" "77232222"
"164705428" "85682752"
"164705428" "226958516"
"168705687" "311875487"
"168705687" "327228127"
"171125155" "19541915"
"171125155" "122886791"
"171125155" "135904226"
"171125155" "304992400"
"175412731" "32042256"
"176045481" "8889954"
"176045481" "302110899"
"177698299" "97162572"
"177698299" "132321691"
"177993169" "135904226"
"178977440" "135904226"
"182111423" "27631775"
"182111423" "217007795"
"184309507" "23870856"
"184838964" "7151356"
"184838964" "66642208"
"184838964" "135904226"
"190570590" "27631775"
"190570590" "276233856"
"190892268" "217007795"
"208486824" "1993236"
"208486824" "4473958"
"208486824" "4730954"
"208486824" "7151356"
"208486824" "7918037"
"208486824" "16961305"
"208486824" "17885170"
"208486824" "17948837"
"208486824" "18434088"
"208486824" "18740433"
"208486824" "23870856"
"208486824" "24387896"
"208486824" "32851244"
"208486824" "36901690"
"208486824" "43616734"
"208486824" "53318278"
"208486824" "85585109"
"208486824" "122690798"
"208486824" "134347125"
"208486824" "150472292"
"208486824" "220876557"
"208486824" "232800868"
"217007795" "8556596"
"217007795" "14278261"
"217007795" "27631775"
"217007795" "36847055"
"217007795" "69276386"
"217007795" "107967250"
"217007795" "143249135"
"217007795" "182111423"
"217007795" "190892268"
"217007795" "228692223"
"217007795" "327228127"
"220876557" "1993236"
"220876557" "4730954"
"220876557" "5338482"
"220876557" "7151356"
"220876557" "7918037"
"220876557" "16390519"
"220876557" "16961305"
"220876557" "17885170"
"220876557" "17948837"
"220876557" "18434088"
"220876557" "18740433"
"220876557" "24387896"
"220876557" "31658972"
"220876557" "36901690"
"220876557" "42309065"
"220876557" "43616734"
"220876557" "53318278"
"220876557" "61174498"
"220876557" "85585109"
"220876557" "122690798"
"220876557" "134347125"
"220876557" "136724390"
"220876557" "208486824"
"220876557" "232800868"
"226958516" "3800490"
"226958516" "5161875"
"226958516" "8459067"
"226958516" "10077463"
"226958516" "10316612"
"226958516" "13415037"
"226958516" "16610701"
"226958516" "21853212"
"226958516" "33723925"
"226958516" "38214179"
"226958516" "38546214"
"226958516" "40429969"
"226958516" "41761695"
"226958516" "77232222"
"226958516" "85682752"
"226958516" "164705428"
"228692223" "10152777"
"228692223" "27631775"
"228692223" "116411513"
"228692223" "217007795"
"232800868" "4473958"
"232800868" "4730954"
"232800868" "5338482"
"232800868" "16390519"
"232800868" "18434088"
"232800868" "24387896"
"232800868" "31658972"
"232800868" "32851244"
"232800868" "85585109"
"232800868" "134347125"
"232800868" "158705721"
"232800868" "208486824"
"232800868" "220876557"
"243378444" "19703045"
"268870404" "69276386"
"268870404" "119994029"
"276233856" "27631775"
"276233856" "116411513"
"276233856" "132919335"
"276233856" "190570590"
"302110899" "8889954"
"302110899" "176045481"
"304992400" "7151356"
"304992400" "27631775"
"304992400" "132919335"
"304992400" "135904226"
"304992400" "171125155"
"311875487" "2556093"
"311875487" "7151356"
"311875487" "49602207"
"311875487" "66642208"
"311875487" "127930346"
"311875487" "168705687"
"311875487" "326604511"
"311875487" "327228127"
"312478760" "80684677"
"312478760" "116411513"
"312478760" "153758390"
"315491662" "164585641"
"326604511" "10152777"
"326604511" "27631775"
"326604511" "121486500"
"326604511" "311875487"
"327228127" "7151356"
"327228127" "10152777"
"327228127" "16858168"
"327228127" "27631775"
"327228127" "116411513"
"327228127" "121486500"
"327228127" "132919335"
"327228127" "168705687"
"327228127" "217007795"
"327228127" "311875487"
